lab_2_leds/simulation/qsim/prubaleds.msim.vcd
$comment
	File created using the following command:
		vcd file prubaleds.msim.vcd -direction
$end
$date
	Sun Nov 09 13:37:02 2025
$end
$version
	ModelSim Version 10.1d
$end
$timescale
	1ps
$end
$scope module Block1_vlg_vec_tst $end
$var reg 1 ! areset $end
$var reg 24 " data [23:0] $end
$var reg 1 # inclk0 $end
$var reg 1 $ load $end
$var wire 1 % CERO $end
$var wire 1 & locked $end
$var wire 1 ' UNO $end
$var wire 1 ( Y $end
$var wire 1 ) sampler $end
$scope module i1 $end
$var wire 1 * gnd $end
$var wire 1 + vcc $end
$var wire 1 , unknown $end
$var tri1 1 - devclrn $end
$var tri1 1 . devpor $end
$var tri1 1 / devoe $end
$var wire 1 0 inst13|LPM_SHIFTREG_component|_~4_combout $end
$var wire 1 1 inst13|LPM_SHIFTREG_component|_~5_combout $end
$var wire 1 2 inst13|LPM_SHIFTREG_component|_~6_combout $end
$var wire 1 3 inst13|LPM_SHIFTREG_component|_~7_combout $end
$var wire 1 4 inst13|LPM_SHIFTREG_component|_~8_combout $end
$var wire 1 5 inst13|LPM_SHIFTREG_component|_~9_combout $end
$var wire 1 6 inst13|LPM_SHIFTREG_component|_~10_combout $end
$var wire 1 7 inst13|LPM_SHIFTREG_component|_~11_combout $end
$var wire 1 8 inst13|LPM_SHIFTREG_component|_~12_combout $end
$var wire 1 9 inst13|LPM_SHIFTREG_component|_~13_combout $end
$var wire 1 : inst13|LPM_SHIFTREG_component|_~14_combout $end
$var wire 1 ; inst13|LPM_SHIFTREG_component|_~15_combout $end
$var wire 1 < inst13|LPM_SHIFTREG_component|_~16_combout $end
$var wire 1 = inst13|LPM_SHIFTREG_component|_~17_combout $end
$var wire 1 > inst13|LPM_SHIFTREG_component|_~18_combout $end
$var wire 1 ? inst13|LPM_SHIFTREG_component|_~19_combout $end
$var wire 1 @ inst13|LPM_SHIFTREG_component|_~20_combout $end
$var wire 1 A inst13|LPM_SHIFTREG_component|_~21_combout $end
$var wire 1 B inst13|LPM_SHIFTREG_component|_~22_combout $end
$var wire 1 C inst13|LPM_SHIFTREG_component|_~23_combout $end
$var wire 1 D data[21]~input_o $end
$var wire 1 E data[19]~input_o $end
$var wire 1 F data[18]~input_o $end
$var wire 1 G data[17]~input_o $end
$var wire 1 H data[16]~input_o $end
$var wire 1 I data[15]~input_o $end
$var wire 1 J data[14]~input_o $end
$var wire 1 K data[13]~input_o $end
$var wire 1 L data[12]~input_o $end
$var wire 1 M data[11]~input_o $end
$var wire 1 N data[10]~input_o $end
$var wire 1 O data[9]~input_o $end
$var wire 1 P data[8]~input_o $end
$var wire 1 Q data[7]~input_o $end
$var wire 1 R data[6]~input_o $end
$var wire 1 S data[5]~input_o $end
$var wire 1 T data[4]~input_o $end
$var wire 1 U data[3]~input_o $end
$var wire 1 V data[2]~input_o $end
$var wire 1 W data[1]~input_o $end
$var wire 1 X data[0]~input_o $end
$var wire 1 Y areset~input_o $end
$var wire 1 Z inclk0~input_o $end
$var wire 1 [ inst|altpll_component|auto_generated|wire_pll1_fbout $end
$var wire 1 \ inst|altpll_component|auto_generated|wire_pll1_locked $end
$var wire 1 ] data[23]~input_o $end
$var wire 1 ^ load~input_o $end
$var wire 1 _ data[20]~input_o $end
$var wire 1 ` inst13|LPM_SHIFTREG_component|_~3_combout $end
$var wire 1 a inst13|LPM_SHIFTREG_component|_~2_combout $end
$var wire 1 b data[22]~input_o $end
$var wire 1 c inst13|LPM_SHIFTREG_component|_~1_combout $end
$var wire 1 d inst13|LPM_SHIFTREG_component|_~0_combout $end
$var wire 1 e inst7~q $end
$var wire 1 f inst|altpll_component|auto_generated|wire_pll1_clk[0]~clkctrl_outclk $end
$var wire 1 g inst2~0_combout $end
$var wire 1 h inst4|count[0]~5_combout $end
$var wire 1 i inst4|count[0]~6 $end
$var wire 1 j inst4|count[1]~8_combout $end
$var wire 1 k inst4|count[1]~9 $end
$var wire 1 l inst4|count[2]~11 $end
$var wire 1 m inst4|count[3]~12_combout $end
$var wire 1 n inst4|count[3]~13 $end
$var wire 1 o inst4|count[4]~14_combout $end
$var wire 1 p inst4|count[4]~7_combout $end
$var wire 1 q inst4|count[2]~10_combout $end
$var wire 1 r inst4|LessThan0~0_combout $end
$var wire 1 s inst4|pulso~0_combout $end
$var wire 1 t inst4|activo~q $end
$var wire 1 u inst2~1_combout $end
$var wire 1 v inst|altpll_component|auto_generated|wire_pll1_clk[0]~clkctrl_e_CERO_outclk $end
$var wire 1 w inst|altpll_component|auto_generated|wire_pll1_clk[1]~clkctrl_outclk $end
$var wire 1 x inst|altpll_component|auto_generated|wire_pll1_clk [4] $end
$var wire 1 y inst|altpll_component|auto_generated|wire_pll1_clk [3] $end
$var wire 1 z inst|altpll_component|auto_generated|wire_pll1_clk [2] $end
$var wire 1 { inst|altpll_component|auto_generated|wire_pll1_clk [1] $end
$var wire 1 | inst|altpll_component|auto_generated|wire_pll1_clk [0] $end
$var wire 1 } inst4|count [4] $end
$var wire 1 ~ inst4|count [3] $end
$var wire 1 !! inst4|count [2] $end
$var wire 1 "! inst4|count [1] $end
$var wire 1 #! inst4|count [0] $end
$var wire 1 $! inst13|LPM_SHIFTREG_component|dffs [23] $end
$var wire 1 %! inst13|LPM_SHIFTREG_component|dffs [22] $end
$var wire 1 &! inst13|LPM_SHIFTREG_component|dffs [21] $end
$var wire 1 '! inst13|LPM_SHIFTREG_component|dffs [20] $end
$var wire 1 (! inst13|LPM_SHIFTREG_component|dffs [19] $end
$var wire 1 )! inst13|LPM_SHIFTREG_component|dffs [18] $end
$var wire 1 *! inst13|LPM_SHIFTREG_component|dffs [17] $end
$var wire 1 +! inst13|LPM_SHIFTREG_component|dffs [16] $end
$var wire 1 ,! inst13|LPM_SHIFTREG_component|dffs [15] $end
$var wire 1 -! inst13|LPM_SHIFTREG_component|dffs [14] $end
$var wire 1 .! inst13|LPM_SHIFTREG_component|dffs [13] $end
$var wire 1 /! inst13|LPM_SHIFTREG_component|dffs [12] $end
$var wire 1 0! inst13|LPM_SHIFTREG_component|dffs [11] $end
$var wire 1 1! inst13|LPM_SHIFTREG_component|dffs [10] $end
$var wire 1 2! inst13|LPM_SHIFTREG_component|dffs [9] $end
$var wire 1 3! inst13|LPM_SHIFTREG_component|dffs [8] $end
$var wire 1 4! inst13|LPM_SHIFTREG_component|dffs [7] $end
$var wire 1 5! inst13|LPM_SHIFTREG_component|dffs [6] $end
$var wire 1 6! inst13|LPM_SHIFTREG_component|dffs [5] $end
$var wire 1 7! inst13|LPM_SHIFTREG_component|dffs [4] $end
$var wire 1 8! inst13|LPM_SHIFTREG_component|dffs [3] $end
$var wire 1 9! inst13|LPM_SHIFTREG_component|dffs [2] $end
$var wire 1 :! inst13|LPM_SHIFTREG_component|dffs [1] $end
$var wire 1 ;! inst13|LPM_SHIFTREG_component|dffs [0] $end
$var wire 1 <! inst|altpll_component|auto_generated|pll1_CLK_bus [4] $end
$var wire 1 =! inst|altpll_component|auto_generated|pll1_CLK_bus [3] $end
$var wire 1 >! inst|altpll_component|auto_generated|pll1_CLK_bus [2] $end
$var wire 1 ?! inst|altpll_component|auto_generated|pll1_CLK_bus [1] $end
$var wire 1 @! inst|altpll_component|auto_generated|pll1_CLK_bus [0] $end
$upscope $end
$upscope $end
$enddefinitions $end
#0
$dumpvars
0!
b111111000000001010101001 "
0#
0$
x%
x&
x'
x(
x)
0*
1+
x,
1-
1.
1/
x0
x1
x2
x3
x4
x5
x6
x7
x8
x9
x:
x;
x<
x=
x>
x?
x@
xA
xB
xC
1D
1E
1F
0G
0H
0I
0J
0K
0L
0M
0N
1O
0P
1Q
0R
1S
0T
1U
0V
0W
1X
0Y
0Z
x[
0\
1]
0^
1_
x`
xa
1b
xc
xd
0e
xf
xg
xh
xi
xj
xk
xl
xm
xn
xo
xp
xq
xr
xs
0t
xu
xv
xw
x|
x{
xz
xy
xx
0#!
0"!
0!!
0~
0}
0;!
0:!
09!
08!
07!
06!
05!
04!
03!
02!
01!
00!
0/!
0.!
0-!
0,!
0+!
0*!
0)!
0(!
0'!
0&!
0%!
0$!
x@!
x?!
x>!
x=!
x<!
$end
#420
0u
#543
1r
#650
0i
#653
0l
#687
1h
#776
1n
#788
1k
#1087
0j
#1090
0m
#1213
0o
#1225
0q
#1994
0g
#3374
1C
#3453
0A
#3464
0B
#3488
0?
#3611
0&
#3636
09
#3754
0;
#3779
04
#3827
08
#3849
02
#3859
0=
#3879
03
#4072
06
#4240
0(
#4273
05
#4336
07
#4383
0d
#4385
0a
#4566
0p
#4574
0s
#4664
0:
#4689
01
00
#4690
0`
#4691
0c
#4767
0<
#4770
0@
#4917
0>
#10000
1#
0)
#10507
1Z
#11219
1[
#20000
0#
1)
#20681
0Z
#21219
0[
#30000
1#
0)
#30507
1Z
#31220
1[
#40000
0#
1)
#40681
0Z
#41220
0[
#50000
1#
0)
#50507
1Z
#51220
1[
#60000
0#
1)
#60681
0Z
#61220
0[
#70000
1#
0)
#70507
1Z
#71220
1[
#80000
0#
1)
#80681
0Z
#81948
0[
#90000
1#
0)
#90507
1Z
#92676
1[
1\
0<!
0=!
0>!
1?!
1@!
0x
0y
0z
1{
1|
1v
#94593
1w
1f
#94807
xg
#95957
1g
#96440
1&
#96908
1%
#98431
1'
#100000
0#
1)
#100681
0Z
#102676
0[
#110000
1#
0)
#110507
1Z
#112676
1[
#120000
0#
1)
#120681
0Z
#122676
0[
#130000
1#
0)
#130507
1Z
#132676
1[
#140000
0#
1)
#140681
0Z
#142676
0[
#150000
1#
0)
#150507
1Z
#152676
1[
#160000
0#
1)
#160681
0Z
#162676
0[
#170000
1#
0)
#170507
1Z
#172676
1[
#180000
0#
1)
#180681
0Z
#182676
0[
#190000
1#
0)
#190507
1Z
#192676
1[
#200000
0#
1)
#200681
0Z
#202676
0[
#210000
1#
0)
#210507
1Z
#212676
1[
#220000
0#
1)
#220681
0Z
#222676
0[
#230000
1#
0)
#230507
1Z
#232676
1[
#240000
0#
1)
#240681
0Z
#242676
0[
#250000
1#
0)
#250507
1Z
#252676
1[
#260000
0#
1)
#260681
0Z
#262676
0[
#270000
1#
0)
#270507
1Z
#272676
1[
#280000
0#
1)
#280681
0Z
#282676
0[
#290000
1#
0)
#290507
1Z
#292676
1[
#300000
0#
1)
#300681
0Z
#302676
0[
#310000
1#
0)
#310507
1Z
#312676
1[
#320000
0#
1)
#320681
0Z
#322676
0[
#330000
1#
0)
#330507
1Z
#332676
1[
#340000
0#
1)
#340681
0Z
#342676
0[
#350000
1#
0)
#350507
1Z
#352676
1[
#360000
0#
1)
#360681
0Z
#362676
0[
#370000
1#
0)
#370507
1Z
#372676
1[
#380000
0#
1)
#380681
0Z
#382676
0[
#390000
1#
0)
#390507
1Z
#392676
1[
#400000
0#
1)
#400681
0Z
#402676
0[
#407000
0@!
0|
0v
#408910
0f
#410000
1#
0)
#410238
0g
#410507
1Z
#411137
0%
#412676
1[
#420000
0#
1)
#420681
0Z
#422676
0[
#430000
1#
0)
#430507
1Z
#432676
1[
#440000
0#
1)
#440681
0Z
#442676
0[
#450000
1#
0)
#450507
1Z
#452676
1[
#460000
0#
1)
#460681
0Z
#462676
0[
#470000
1#
0)
#470507
1Z
#472676
1[
#480000
0#
1)
#480681
0Z
#482676
0[
#490000
1#
0)
#490507
1Z
#492676
1[
#500000
0#
1)
#500681
0Z
#502676
0[
#510000
1#
0)
#510507
1Z
#512676
1[
#520000
0#
1)
#520681
0Z
#522676
0[
#530000
1#
0)
#530507
1Z
#532676
1[
#540000
0#
1)
#540681
0Z
#542676
0[
#550000
1#
0)
#550507
1Z
#552676
1[
#560000
0#
1)
#560681
0Z
#562676
0[
#570000
1#
0)
#570507
1Z
#572676
1[
#580000
0#
1)
#580681
0Z
#582676
0[
#590000
1#
0)
#590507
1Z
#592676
1[
#600000
1$
0#
1)
#600497
1^
#600681
0Z
#602676
0[
#604544
1d
#604546
1a
#604748
1p
#604750
1s
#604808
1:
#604809
10
#604827
11
#604828
1c
#604838
1`
#604902
1<
#604905
1@
#605046
1>
#610000
1#
0)
#610507
1Z
#612676
1[
#620000
0#
1)
#620681
0Z
#622676
0[
#630000
1#
0)
#630507
1Z
#632676
1[
#640000
0#
1)
#640681
0Z
#642676
0[
#650000
1#
0)
#650507
1Z
#652676
1[
#660000
0#
1)
#660681
0Z
#662676
0[
#670000
1#
0)
#670507
1Z
#672676
1[
#680000
0#
1)
#680681
0Z
#682676
0[
#690000
1#
0)
#690507
1Z
#692676
1[
#700000
0#
1)
#700681
0Z
#702676
0[
#710000
1#
0)
#710507
1Z
#712676
1[
#720000
0#
1)
#720681
0Z
#722676
0[
#730000
1#
0)
#730507
1Z
#732676
1[
#740000
0#
1)
#740681
0Z
#742676
0[
#750000
1#
0)
#750507
1Z
#752676
1[
#760000
0#
1)
#760681
0Z
#762676
0[
#770000
1#
0)
#770507
1Z
#772676
1[
#780000
0#
1)
#780681
0Z
#782676
0[
#790000
1#
0)
#790507
1Z
#792676
1[
#800000
0#
1)
#800681
0Z
#802676
0[
#807000
0?!
0{
#808910
0w
#810000
1#
0)
#810502
1$!
1%!
1&!
1'!
12!
1)!
1(!
#810507
1Z
#810509
1;!
18!
16!
14!
#812610
0'
#812676
1[
#820000
0#
1)
#820681
0Z
#822676
0[
#830000
1#
0)
#830507
1Z
#832676
1[
#840000
0#
1)
#840681
0Z
#842676
0[
#850000
1#
0)
#850507
1Z
#852676
1[
#860000
0#
1)
#860681
0Z
#862676
0[
#870000
1#
0)
#870507
1Z
#872676
1[
#880000
0#
1)
#880681
0Z
#882676
0[
#890000
1#
0)
#890507
1Z
#892676
1[
#900000
0#
1)
#900681
0Z
#902676
0[
#910000
1#
0)
#910507
1Z
#912676
1[
#920000
0#
1)
#920681
0Z
#922676
0[
#930000
1#
0)
#930507
1Z
#932676
1[
#940000
0#
1)
#940681
0Z
#942676
0[
#950000
1#
0)
#950507
1Z
#952676
1[
#960000
0#
1)
#960681
0Z
#962676
0[
#970000
1#
0)
#970507
1Z
#972676
1[
#980000
0#
1)
#980681
0Z
#982676
0[
#990000
1#
0)
#990507
1Z
#992676
1[
#1000000
0#
1)
#1000681
0Z
#1002676
0[
#1010000
1#
0)
#1010507
1Z
#1012676
1[
#1020000
0#
1)
#1020681
0Z
#1022676
0[
#1030000
1#
0)
#1030507
1Z
#1032676
1[
#1040000
0#
1)
#1040681
0Z
#1042676
0[
#1050000
1#
0)
#1050507
1Z
#1052676
1[
#1060000
0#
1)
#1060681
0Z
#1062676
0[
#1070000
1#
0)
#1070507
1Z
#1072676
1[
#1080000
0#
1)
#1080681
0Z
#1082676
0[
#1090000
1#
0)
#1090507
1Z
#1092676
1[
#1100000
0#
1)
#1100681
0Z
#1102676
0[
#1110000
1#
0)
#1110507
1Z
#1112676
1[
#1120000
0#
1)
#1120681
0Z
#1122676
0[
#1130000
1#
0)
#1130507
1Z
#1132676
1[
#1140000
0#
1)
#1140681
0Z
#1142676
0[
#1150000
1#
0)
#1150507
1Z
#1152676
1[
#1160000
0#
1)
#1160681
0Z
#1162676
0[
#1170000
1#
0)
#1170507
1Z
#1172676
1[
#1180000
0#
1)
#1180681
0Z
#1182676
0[
#1190000
1#
0)
#1190507
1Z
#1192676
1[
#1200000
0#
1)
#1200681
0Z
#1202676
0[
#1210000
1#
0)
#1210507
1Z
#1212676
1[
#1220000
0#
1)
#1220681
0Z
#1222676
0[
#1230000
1#
0)
#1230507
1Z
#1232676
1[
#1240000
0#
1)
#1240681
0Z
#1242676
0[
#1250000
1#
0)
#1250507
1Z
#1252676
1[
#1257000
1?!
1@!
1{
1|
1v
#1258917
1w
1f
#1260000
0#
1)
#1260281
1g
#1260550
1e
1t
#1260681
0Z
#1260908
1u
#1261232
1%
#1262676
0[
#1262755
1'
#1264786
1(
#1270000
1#
0)
#1270507
1Z
#1272676
1[
#1280000
0#
1)
#1280681
0Z
#1282676
0[
#1290000
1#
0)
#1290507
1Z
#1292676
1[
#1300000
0#
1)
#1300681
0Z
#1302676
0[
#1310000
1#
0)
#1310507
1Z
#1312676
1[
#1320000
0#
1)
#1320681
0Z
#1322676
0[
#1330000
1#
0)
#1330507
1Z
#1332676
1[
#1340000
0#
1)
#1340681
0Z
#1342676
0[
#1350000
1#
0)
#1350507
1Z
#1352676
1[
#1360000
0#
1)
#1360681
0Z
#1362676
0[
#1370000
1#
0)
#1370507
1Z
#1372676
1[
#1380000
0#
1)
#1380681
0Z
#1382676
0[
#1390000
1#
0)
#1390507
1Z
#1392676
1[
#1400000
0#
1)
#1400681
0Z
#1402676
0[
#1410000
1#
0)
#1410507
1Z
#1412676
1[
#1420000
0#
1)
#1420681
0Z
#1422676
0[
#1430000
1#
0)
#1430507
1Z
#1432676
1[
#1440000
0#
1)
#1440681
0Z
#1442676
0[
#1450000
1#
0)
#1450507
1Z
#1452676
1[
#1460000
0#
1)
#1460681
0Z
#1462676
0[
#1470000
1#
0)
#1470507
1Z
#1472676
1[
#1480000
0#
1)
#1480681
0Z
#1482676
0[
#1490000
1#
0)
#1490507
1Z
#1492676
1[
#1500000
0#
1)
#1500681
0Z
#1502676
0[
#1510000
1#
0)
#1510507
1Z
#1512676
1[
#1520000
0#
1)
#1520681
0Z
#1522676
0[
#1530000
1#
0)
#1530507
1Z
#1532676
1[
#1540000
0#
1)
#1540681
0Z
#1542676
0[
#1550000
1#
0)
#1550507
1Z
#1552676
1[
#1560000
0#
1)
#1560681
0Z
#1562676
0[
#1570000
1#
0)
#1570507
1Z
#1572676
1[
#1580000
0#
1)
#1580681
0Z
#1582676
0[
#1590000
1#
0)
#1590507
1Z
#1592676
1[
#1600000
0#
1)
#1600681
0Z
#1602676
0[
#1610000
1#
0)
#1610507
1Z
#1612676
1[
#1620000
0#
1)
#1620681
0Z
#1622676
0[
#1630000
1#
0)
#1630507
1Z
#1632676
1[
#1640000
0#
1)
#1640681
0Z
#1642676
0[
#1650000
1#
0)
#1650507
1Z
#1652676
1[
#1657000
0@!
0|
0v
#1658910
0f
#1660000
0#
1)
#1660681
0Z
#1661137
0%
#1662676
0[
#1670000
1#
0)
#1670507
1Z
#1672676
1[
#1680000
0#
1)
#1680681
0Z
#1682676
0[
#1690000
1#
0)
#1690507
1Z
#1692676
1[
#1700000
0#
1)
#1700681
0Z
#1702676
0[
#1710000
1#
0)
#1710507
1Z
#1712676
1[
#1720000
0#
1)
#1720681
0Z
#1722676
0[
#1730000
1#
0)
#1730507
1Z
#1732676
1[
#1740000
0#
1)
#1740681
0Z
#1742676
0[
#1750000
1#
0)
#1750507
1Z
#1752676
1[
#1760000
0#
1)
#1760681
0Z
#1762676
0[
#1770000
1#
0)
#1770507
1Z
#1772676
1[
#1780000
0#
1)
#1780681
0Z
#1782676
0[
#1790000
1#
0)
#1790507
1Z
#1792676
1[
#1800000
0#
1)
#1800681
0Z
#1802676
0[
#1810000
1#
0)
#1810507
1Z
#1812676
1[
#1820000
0#
1)
#1820681
0Z
#1822676
0[
#1830000
1#
0)
#1830507
1Z
#1832676
1[
#1840000
0#
1)
#1840681
0Z
#1842676
0[
#1850000
1#
0)
#1850507
1Z
#1852676
1[
#1860000
0#
1)
#1860681
0Z
#1862676
0[
#1870000
1#
0)
#1870507
1Z
#1872676
1[
#1880000
0#
1)
#1880681
0Z
#1882676
0[
#1890000
1#
0)
#1890507
1Z
#1892676
1[
#1900000
0$
0#
1)
#1900671
0^
#1900681
0Z
#1902676
0[
#1905335
0:
#1905360
01
#1905371
19
#1905430
1B
#1905433
1=
1?
#1905438
0<
#1905441
0@
#1905443
1;
#1905588
0>
#1910000
1#
0)
#1910507
1Z
#1912676
1[
#1920000
0#
1)
#1920681
0Z
#1922676
0[
#1930000
1#
0)
#1930507
1Z
#1932676
1[
#1940000
0#
1)
#1940681
0Z
#1942676
0[
#1950000
1#
0)
#1950507
1Z
#1952676
1[
#1960000
0#
1)
#1960681
0Z
#1962676
0[
#1970000
1#
0)
#1970507
1Z
#1972676
1[
#1980000
0#
1)
#1980681
0Z
#1982676
0[
#1990000
1#
0)
#1990507
1Z
#1992676
1[
#2000000
0#
1)
#2000681
0Z
#2002676
0[
#2010000
1#
0)
#2010507
1Z
#2012676
1[
#2020000
0#
1)
#2020681
0Z
#2022676
0[
#2030000
1#
0)
#2030507
1Z
#2032676
1[
#2040000
0#
1)
#2040681
0Z
#2042676
0[
#2050000
1#
0)
#2050507
1Z
#2052676
1[
#2057000
0?!
0{
#2058910
0w
#2060000
0#
1)
#2060502
02!
11!
0)!
#2060509
1:!
08!
17!
06!
15!
04!
13!
#2060512
0g
#2060681
0Z
#2060857
1>
#2060906
00
#2060914
0=
#2061110
18
#2061114
1<
#2061117
1A
#2061181
09
#2061203
0?
#2061206
0;
#2061248
0u
#2062251
1:
#2062610
0'
#2062676
0[
#2065068
0(
#2070000
1#
0)
#2070507
1Z
#2072676
1[
#2080000
0#
1)
#2080681
0Z
#2082676
0[
#2090000
1#
0)
#2090507
1Z
#2092676
1[
#2100000
0#
1)
#2100681
0Z
#2102676
0[
#2110000
1#
0)
#2110507
1Z
#2112676
1[
#2120000
0#
1)
#2120681
0Z
#2122676
0[
#2130000
1#
0)
#2130507
1Z
#2132676
1[
#2140000
0#
1)
#2140681
0Z
#2142676
0[
#2150000
1#
0)
#2150507
1Z
#2152676
1[
#2160000
0#
1)
#2160681
0Z
#2162676
0[
#2170000
1#
0)
#2170507
1Z
#2172676
1[
#2180000
0#
1)
#2180681
0Z
#2182676
0[
#2190000
1#
0)
#2190507
1Z
#2192676
1[
#2200000
0#
1)
#2200681
0Z
#2202676
0[
#2210000
1#
0)
#2210507
1Z
#2212676
1[
#2220000
0#
1)
#2220681
0Z
#2222676
0[
#2230000
1#
0)
#2230507
1Z
#2232676
1[
#2240000
0#
1)
#2240681
0Z
#2242676
0[
#2250000
1#
0)
#2250507
1Z
#2252676
1[
#2260000
0#
1)
#2260681
0Z
#2262676
0[
#2270000
1#
0)
#2270507
1Z
#2272676
1[
#2280000
0#
1)
#2280681
0Z
#2282676
0[
#2290000
1#
0)
#2290507
1Z
#2292676
1[
#2300000
0#
1)
#2300681
0Z
#2302676
0[
#2310000
1#
0)
#2310507
1Z
#2312676
1[
#2320000
0#
1)
#2320681
0Z
#2322676
0[
#2330000
1#
0)
#2330507
1Z
#2332676
1[
#2340000
0#
1)
#2340681
0Z
#2342676
0[
#2350000
1#
0)
#2350507
1Z
#2352676
1[
#2360000
0#
1)
#2360681
0Z
#2362676
0[
#2370000
1#
0)
#2370507
1Z
#2372676
1[
#2380000
0#
1)
#2380681
0Z
#2382676
0[
#2390000
1#
0)
#2390507
1Z
#2392676
1[
#2400000
0#
1)
#2400681
0Z
#2402676
0[
#2410000
1#
0)
#2410507
1Z
#2412676
1[
#2420000
0#
1)
#2420681
0Z
#2422676
0[
#2430000
1#
0)
#2430507
1Z
#2432676
1[
#2440000
0#
1)
#2440681
0Z
#2442676
0[
#2450000
1#
0)
#2450507
1Z
#2452676
1[
#2460000
0#
1)
#2460681
0Z
#2462676
0[
#2470000
1#
0)
#2470507
1Z
#2472676
1[
#2480000
0#
1)
#2480681
0Z
#2482676
0[
#2490000
1#
0)
#2490507
1Z
#2492676
1[
#2500000
0#
1)
#2500681
0Z
#2502676
0[
#2507000
1?!
1@!
1{
1|
1v
#2508917
1w
1f
#2510000
1#
0)
#2510507
1Z
#2510514
1g
#2510550
1#!
#2511174
0h
#2511232
1%
#2511250
1u
#2511251
1i
#2511706
1j
#2512676
1[
#2512755
1'
#2515128
1(
#2520000
0#
1)
#2520681
0Z
#2522676
0[
#2530000
1#
0)
#2530507
1Z
#2532676
1[
#2540000
0#
1)
#2540681
0Z
#2542676
0[
#2550000
1#
0)
#2550507
1Z
#2552676
1[
#2560000
0#
1)
#2560681
0Z
#2562676
0[
#2570000
1#
0)
#2570507
1Z
#2572676
1[
#2580000
0#
1)
#2580681
0Z
#2582676
0[
#2590000
1#
0)
#2590507
1Z
#2592676
1[
#2600000
0#
1)
#2600681
0Z
#2602676
0[
#2610000
1#
0)
#2610507
1Z
#2612676
1[
#2620000
0#
1)
#2620681
0Z
#2622676
0[
#2630000
1#
0)
#2630507
1Z
#2632676
1[
#2640000
0#
1)
#2640681
0Z
#2642676
0[
#2650000
1#
0)
#2650507
1Z
#2652676
1[
#2660000
0#
1)
#2660681
0Z
#2662676
0[
#2670000
1#
0)
#2670507
1Z
#2672676
1[
#2680000
0#
1)
#2680681
0Z
#2682676
0[
#2690000
1#
0)
#2690507
1Z
#2692676
1[
#2700000
0#
1)
#2700681
0Z
#2702676
0[
#2710000
1#
0)
#2710507
1Z
#2712676
1[
#2720000
0#
1)
#2720681
0Z
#2722676
0[
#2730000
1#
0)
#2730507
1Z
#2732676
1[
#2740000
0#
1)
#2740681
0Z
#2742676
0[
#2750000
1#
0)
#2750507
1Z
#2752676
1[
#2760000
0#
1)
#2760681
0Z
#2762676
0[
#2770000
1#
0)
#2770507
1Z
#2772676
1[
#2780000
0#
1)
#2780681
0Z
#2782676
0[
#2790000
1#
0)
#2790507
1Z
#2792676
1[
#2800000
0#
1)
#2800681
0Z
#2802676
0[
#2810000
1#
0)
#2810507
1Z
#2812676
1[
#2820000
0#
1)
#2820681
0Z
#2822676
0[
#2830000
1#
0)
#2830507
1Z
#2832676
1[
#2840000
0#
1)
#2840681
0Z
#2842676
0[
#2850000
1#
0)
#2850507
1Z
#2852676
1[
#2860000
0#
1)
#2860681
0Z
#2862676
0[
#2870000
1#
0)
#2870507
1Z
#2872676
1[
#2880000
0#
1)
#2880681
0Z
#2882676
0[
#2890000
1#
0)
#2890507
1Z
#2892676
1[
#2900000
0#
1)
#2900681
0Z
#2902676
0[
#2907000
0@!
0|
0v
#2908910
0f
#2910000
1#
0)
#2910507
1Z
#2911137
0%
#2912676
1[
#2920000
0#
1)
#2920681
0Z
#2922676
0[
#2930000
1#
0)
#2930507
1Z
#2932676
1[
#2940000
0#
1)
#2940681
0Z
#2942676
0[
#2950000
1#
0)
#2950507
1Z
#2952676
1[
#2960000
0#
1)
#2960681
0Z
#2962676
0[
#2970000
1#
0)
#2970507
1Z
#2972676
1[
#2980000
0#
1)
#2980681
0Z
#2982676
0[
#2990000
1#
0)
#2990507
1Z
#2992676
1[
#3000000
0#
1)
#3000681
0Z
#3002676
0[
#3010000
1#
0)
#3010507
1Z
#3012676
1[
#3020000
0#
1)
#3020681
0Z
#3022676
0[
#3030000
1#
0)
#3030507
1Z
#3032676
1[
#3040000
0#
1)
#3040681
0Z
#3042676
0[
#3050000
1#
0)
#3050507
1Z
#3052676
1[
#3060000
0#
1)
#3060681
0Z
#3062676
0[
#3070000
1#
0)
#3070507
1Z
#3072676
1[
#3080000
0#
1)
#3080681
0Z
#3082676
0[
#3090000
1#
0)
#3090507
1Z
#3092676
1[
#3100000
0#
1)
#3100681
0Z
#3102676
0[
#3110000
1#
0)
#3110507
1Z
#3112676
1[
#3120000
0#
1)
#3120681
0Z
#3122676
0[
#3130000
1#
0)
#3130507
1Z
#3132676
1[
#3140000
0#
1)
#3140681
0Z
#3142676
0[
#3150000
1#
0)
#3150507
1Z
#3152676
1[
#3160000
0#
1)
#3160681
0Z
#3162676
0[
#3170000
1#
0)
#3170507
1Z
#3172676
1[
#3180000
0#
1)
#3180681
0Z
#3182676
0[
#3190000
1#
0)
#3190507
1Z
#3192676
1[
#3200000
0#
1)
#3200681
0Z
#3202676
0[
#3210000
1#
0)
#3210507
1Z
#3212676
1[
#3220000
0#
1)
#3220681
0Z
#3222676
0[
#3230000
1#
0)
#3230507
1Z
#3232676
1[
#3240000
0#
1)
#3240681
0Z
#3242676
0[
#3250000
1#
0)
#3250507
1Z
#3252676
1[
#3260000
0#
1)
#3260681
0Z
#3262676
0[
#3270000
1#
0)
#3270507
1Z
#3272676
1[
#3280000
0#
1)
#3280681
0Z
#3282676
0[
#3290000
1#
0)
#3290507
1Z
#3292676
1[
#3300000
0#
1)
#3300681
0Z
#3302676
0[
#3307000
0?!
0{
#3308910
0w
#3310000
1#
0)
#3310502
12!
01!
10!
0(!
#3310507
1Z
#3310509
19!
07!
16!
05!
14!
03!
#3310512
0g
#3310852
17
#3310858
1=
#3310913
0>
#3311109
19
#3311116
1;
1@
#3311183
0`
#3311200
08
#3311203
0<
#3311248
0u
#3312307
0:
#3312610
0'
#3312676
1[
#3315068
0(
#3320000
0#
1)
#3320681
0Z
#3322676
0[
#3330000
1#
0)
#3330507
1Z
#3332676
1[
#3340000
0#
1)
#3340681
0Z
#3342676
0[
#3350000
1#
0)
#3350507
1Z
#3352676
1[
#3360000
0#
1)
#3360681
0Z
#3362676
0[
#3370000
1#
0)
#3370507
1Z
#3372676
1[
#3380000
0#
1)
#3380681
0Z
#3382676
0[
#3390000
1#
0)
#3390507
1Z
#3392676
1[
#3400000
0#
1)
#3400681
0Z
#3402676
0[
#3410000
1#
0)
#3410507
1Z
#3412676
1[
#3420000
0#
1)
#3420681
0Z
#3422676
0[
#3430000
1#
0)
#3430507
1Z
#3432676
1[
#3440000
0#
1)
#3440681
0Z
#3442676
0[
#3450000
1#
0)
#3450507
1Z
#3452676
1[
#3460000
0#
1)
#3460681
0Z
#3462676
0[
#3470000
1#
0)
#3470507
1Z
#3472676
1[
#3480000
0#
1)
#3480681
0Z
#3482676
0[
#3490000
1#
0)
#3490507
1Z
#3492676
1[
#3500000
0#
1)
#3500681
0Z
#3502676
0[
#3510000
1#
0)
#3510507
1Z
#3512676
1[
#3520000
0#
1)
#3520681
0Z
#3522676
0[
#3530000
1#
0)
#3530507
1Z
#3532676
1[
#3540000
0#
1)
#3540681
0Z
#3542676
0[
#3550000
1#
0)
#3550507
1Z
#3552676
1[
#3560000
0#
1)
