Teclado/simulation/qsim/Proyecto_final.msim.vcd
$comment
	File created using the following command:
		vcd file Proyecto_final.msim.vcd -direction
$end
$date
	Sun Nov 09 23:13:27 2025
$end
$version
	ModelSim Version 10.1d
$end
$timescale
	1ps
$end
$scope module teclado_vlg_vec_tst $end
$var reg 1 ! clk $end
$var reg 1 " R1 $end
$var reg 1 # R2 $end
$var reg 1 $ R3 $end
$var reg 1 % R4 $end
$var reg 1 & reset $end
$var wire 1 ' C1 $end
$var wire 1 ( C2 $end
$var wire 1 ) C3 $end
$var wire 1 * C4 $end
$var wire 1 + Cout [3] $end
$var wire 1 , Cout [2] $end
$var wire 1 - Cout [1] $end
$var wire 1 . Cout [0] $end
$var wire 1 / D1 [3] $end
$var wire 1 0 D1 [2] $end
$var wire 1 1 D1 [1] $end
$var wire 1 2 D1 [0] $end
$var wire 1 3 D2 [3] $end
$var wire 1 4 D2 [2] $end
$var wire 1 5 D2 [1] $end
$var wire 1 6 D2 [0] $end
$var wire 1 7 D3 [3] $end
$var wire 1 8 D3 [2] $end
$var wire 1 9 D3 [1] $end
$var wire 1 : D3 [0] $end
$var wire 1 ; D4 [3] $end
$var wire 1 < D4 [2] $end
$var wire 1 = D4 [1] $end
$var wire 1 > D4 [0] $end
$var wire 1 ? MS_1 [0] $end
$var wire 1 @ MS_1 [1] $end
$var wire 1 A MS_1 [2] $end
$var wire 1 B MS_1 [3] $end
$var wire 1 C MS_2 [0] $end
$var wire 1 D MS_2 [1] $end
$var wire 1 E MS_2 [2] $end
$var wire 1 F MS_2 [3] $end
$var wire 1 G MS_3 [0] $end
$var wire 1 H MS_3 [1] $end
$var wire 1 I MS_3 [2] $end
$var wire 1 J MS_3 [3] $end
$var wire 1 K MS_4 [0] $end
$var wire 1 L MS_4 [1] $end
$var wire 1 M MS_4 [2] $end
$var wire 1 N MS_4 [3] $end
$var wire 1 O sampler $end
$scope module i1 $end
$var wire 1 P gnd $end
$var wire 1 Q vcc $end
$var wire 1 R unknown $end
$var tri1 1 S devclrn $end
$var tri1 1 T devpor $end
$var tri1 1 U devoe $end
$var wire 1 V C[0]~6_combout $end
$var wire 1 W D[15][2]~q $end
$var wire 1 X D[9][2]~q $end
$var wire 1 Y Equal0~0_combout $end
$var wire 1 Z Equal3~0_combout $end
$var wire 1 [ C~27_combout $end
$var wire 1 \ Add1~0_combout $end
$var wire 1 ] Add4~0_combout $end
$var wire 1 ^ sal[0]~8_combout $end
$var wire 1 _ detecta~4_combout $end
$var wire 1 ` detecta~10_combout $end
$var wire 1 a detecta~11_combout $end
$var wire 1 b detecta~13_combout $end
$var wire 1 c Add16~0_combout $end
$var wire 1 d D[13][3]~59_combout $end
$var wire 1 e D[15][2]~70_combout $end
$var wire 1 f D[9][2]~77_combout $end
$var wire 1 g Add10~0_combout $end
$var wire 1 h Add11~0_combout $end
$var wire 1 i process_0~24_combout $end
$var wire 1 j C~41_combout $end
$var wire 1 k reset~input_o $end
$var wire 1 l C1~output_o $end
$var wire 1 m C2~output_o $end
$var wire 1 n C3~output_o $end
$var wire 1 o C4~output_o $end
$var wire 1 p Cout[0]~output_o $end
$var wire 1 q Cout[1]~output_o $end
$var wire 1 r Cout[2]~output_o $end
$var wire 1 s Cout[3]~output_o $end
$var wire 1 t D1[0]~output_o $end
$var wire 1 u D1[1]~output_o $end
$var wire 1 v D1[2]~output_o $end
$var wire 1 w D1[3]~output_o $end
$var wire 1 x D2[0]~output_o $end
$var wire 1 y D2[1]~output_o $end
$var wire 1 z D2[2]~output_o $end
$var wire 1 { D2[3]~output_o $end
$var wire 1 | D3[0]~output_o $end
$var wire 1 } D3[1]~output_o $end
$var wire 1 ~ D3[2]~output_o $end
$var wire 1 !! D3[3]~output_o $end
$var wire 1 "! D4[0]~output_o $end
$var wire 1 #! D4[1]~output_o $end
$var wire 1 $! D4[2]~output_o $end
$var wire 1 %! D4[3]~output_o $end
$var wire 1 &! MS_1[3]~output_o $end
$var wire 1 '! MS_1[2]~output_o $end
$var wire 1 (! MS_1[1]~output_o $end
$var wire 1 )! MS_1[0]~output_o $end
$var wire 1 *! MS_2[3]~output_o $end
$var wire 1 +! MS_2[2]~output_o $end
$var wire 1 ,! MS_2[1]~output_o $end
$var wire 1 -! MS_2[0]~output_o $end
$var wire 1 .! MS_3[3]~output_o $end
$var wire 1 /! MS_3[2]~output_o $end
$var wire 1 0! MS_3[1]~output_o $end
$var wire 1 1! MS_3[0]~output_o $end
$var wire 1 2! MS_4[3]~output_o $end
$var wire 1 3! MS_4[2]~output_o $end
$var wire 1 4! MS_4[1]~output_o $end
$var wire 1 5! MS_4[0]~output_o $end
$var wire 1 6! clk~input_o $end
$var wire 1 7! clk~inputclkctrl_outclk $end
$var wire 1 8! R3~input_o $end
$var wire 1 9! R1~input_o $end
$var wire 1 :! Equal1~0_combout $end
$var wire 1 ;! D[5][3]~31_combout $end
$var wire 1 <! D[5][0]~36_combout $end
$var wire 1 =! D[5][0]~q $end
$var wire 1 >! D[5][1]~37_combout $end
$var wire 1 ?! D[5][1]~q $end
$var wire 1 @! Add5~0_combout $end
$var wire 1 A! D[5][2]~38_combout $end
$var wire 1 B! D[5][2]~q $end
$var wire 1 C! process_0~0_combout $end
$var wire 1 D! process_0~1_combout $end
$var wire 1 E! D[6][3]~33_combout $end
$var wire 1 F! D[6][0]~39_combout $end
$var wire 1 G! D[6][0]~q $end
$var wire 1 H! D[6][2]~41_combout $end
$var wire 1 I! D[6][2]~q $end
$var wire 1 J! process_0~20_combout $end
$var wire 1 K! D[6][3]~34_combout $end
$var wire 1 L! D[6][1]~40_combout $end
$var wire 1 M! D[6][1]~q $end
$var wire 1 N! Add6~0_combout $end
$var wire 1 O! D[6][3]~35_combout $end
$var wire 1 P! D[6][3]~q $end
$var wire 1 Q! R2~input_o $end
$var wire 1 R! process_0~2_combout $end
$var wire 1 S! detecta~0_combout $end
$var wire 1 T! D[8][2]~51_combout $end
$var wire 1 U! D[8][2]~q $end
$var wire 1 V! process_0~5_combout $end
$var wire 1 W! D[7][3]~42_combout $end
$var wire 1 X! D[7][0]~44_combout $end
$var wire 1 Y! D[7][0]~q $end
$var wire 1 Z! D[7][1]~45_combout $end
$var wire 1 [! D[7][1]~q $end
$var wire 1 \! Add7~0_combout $end
$var wire 1 ]! D[7][2]~46_combout $end
$var wire 1 ^! D[7][2]~q $end
$var wire 1 _! process_0~3_combout $end
$var wire 1 `! process_0~4_combout $end
$var wire 1 a! D[7][3]~47_combout $end
$var wire 1 b! D[8][3]~48_combout $end
$var wire 1 c! D[8][0]~49_combout $end
$var wire 1 d! D[8][0]~q $end
$var wire 1 e! D[8][1]~50_combout $end
$var wire 1 f! D[8][1]~q $end
$var wire 1 g! Add8~0_combout $end
$var wire 1 h! D[8][3]~52_combout $end
$var wire 1 i! D[8][3]~q $end
$var wire 1 j! detecta~2_combout $end
$var wire 1 k! detecta~3_combout $end
$var wire 1 l! detecta~5_combout $end
$var wire 1 m! detecta~6_combout $end
$var wire 1 n! D[1][0]~8_combout $end
$var wire 1 o! D[1][0]~9_combout $end
$var wire 1 p! D[1][0]~q $end
$var wire 1 q! D[1][1]~11_combout $end
$var wire 1 r! D[1][1]~q $end
$var wire 1 s! process_0~15_combout $end
$var wire 1 t! D[1][0]~10_combout $end
$var wire 1 u! D[1][2]~12_combout $end
$var wire 1 v! D[1][2]~q $end
$var wire 1 w! D[1][3]~13_combout $end
$var wire 1 x! D[1][3]~q $end
$var wire 1 y! detecta~21_combout $end
$var wire 1 z! D[3][2]~23_combout $end
$var wire 1 {! D[3][2]~q $end
$var wire 1 |! D[3][1]~22_combout $end
$var wire 1 }! D[3][1]~q $end
$var wire 1 ~! process_0~17_combout $end
$var wire 1 !" D[2][0]~15_combout $end
$var wire 1 "" D[2][0]~q $end
$var wire 1 #" D[2][1]~17_combout $end
$var wire 1 $" D[2][1]~q $end
$var wire 1 %" process_0~14_combout $end
$var wire 1 &" D[2][0]~14_combout $end
$var wire 1 '" D[2][0]~16_combout $end
$var wire 1 (" Add2~0_combout $end
$var wire 1 )" D[2][2]~18_combout $end
$var wire 1 *" D[2][2]~q $end
$var wire 1 +" D[2][3]~19_combout $end
$var wire 1 ," D[2][3]~q $end
$var wire 1 -" D[4][0]~7_combout $end
$var wire 1 ." D[3][0]~20_combout $end
$var wire 1 /" D[3][0]~21_combout $end
$var wire 1 0" D[3][0]~q $end
$var wire 1 1" Add3~0_combout $end
$var wire 1 2" D[3][3]~24_combout $end
$var wire 1 3" D[3][3]~q $end
$var wire 1 4" R4~input_o $end
$var wire 1 5" D[4][0]~27_combout $end
$var wire 1 6" D[4][0]~q $end
$var wire 1 7" process_0~16_combout $end
$var wire 1 8" D[4][0]~25_combout $end
$var wire 1 9" D[4][0]~26_combout $end
$var wire 1 :" D[4][2]~29_combout $end
$var wire 1 ;" D[4][2]~q $end
$var wire 1 <" D[4][3]~30_combout $end
$var wire 1 =" D[4][3]~q $end
$var wire 1 >" detecta~19_combout $end
$var wire 1 ?" detecta~20_combout $end
$var wire 1 @" detecta~22_combout $end
$var wire 1 A" D[7][3]~43_combout $end
$var wire 1 B" D[7][3]~q $end
$var wire 1 C" C[0]~8_combout $end
$var wire 1 D" C[0]~40_combout $end
$var wire 1 E" C[0]~7_combout $end
$var wire 1 F" C[0]~9_combout $end
$var wire 1 G" D[9][1]~76_combout $end
$var wire 1 H" D[9][1]~q $end
$var wire 1 I" sal[2]~5_combout $end
$var wire 1 J" D[9][3]~74_combout $end
$var wire 1 K" D[9][0]~75_combout $end
$var wire 1 L" D[9][0]~q $end
$var wire 1 M" Add9~0_combout $end
$var wire 1 N" D[9][3]~91_combout $end
$var wire 1 O" D[9][3]~q $end
$var wire 1 P" C[0]~22_combout $end
$var wire 1 Q" C[0]~20_combout $end
$var wire 1 R" C[0]~21_combout $end
$var wire 1 S" C~23_combout $end
$var wire 1 T" C[0]~18_combout $end
$var wire 1 U" process_0~19_combout $end
$var wire 1 V" D[10][3]~78_combout $end
$var wire 1 W" D[10][0]~81_combout $end
$var wire 1 X" D[10][0]~q $end
$var wire 1 Y" D[10][1]~82_combout $end
$var wire 1 Z" D[10][1]~q $end
$var wire 1 [" D[10][3]~79_combout $end
$var wire 1 \" D[10][3]~q $end
$var wire 1 ]" D[10][2]~83_combout $end
$var wire 1 ^" D[10][2]~q $end
$var wire 1 _" process_0~11_combout $end
$var wire 1 `" detecta~15_combout $end
$var wire 1 a" D[11][3]~93_combout $end
$var wire 1 b" D[11][3]~80_combout $end
$var wire 1 c" D[11][3]~q $end
$var wire 1 d" D[11][2]~85_combout $end
$var wire 1 e" D[11][2]~q $end
$var wire 1 f" D[11][0]~94_combout $end
$var wire 1 g" D[11][0]~q $end
$var wire 1 h" D[11][1]~84_combout $end
$var wire 1 i" D[11][1]~q $end
$var wire 1 j" process_0~12_combout $end
$var wire 1 k" D[12][1]~89_combout $end
$var wire 1 l" D[12][1]~q $end
$var wire 1 m" D[12][2]~90_combout $end
$var wire 1 n" D[12][2]~q $end
$var wire 1 o" process_0~13_combout $end
$var wire 1 p" D[12][3]~86_combout $end
$var wire 1 q" D[12][0]~88_combout $end
$var wire 1 r" D[12][0]~q $end
$var wire 1 s" Add12~0_combout $end
$var wire 1 t" D[12][3]~87_combout $end
$var wire 1 u" D[12][3]~q $end
$var wire 1 v" C[0]~16_combout $end
$var wire 1 w" C[0]~17_combout $end
$var wire 1 x" C[0]~19_combout $end
$var wire 1 y" C~24_combout $end
$var wire 1 z" D[13][0]~60_combout $end
$var wire 1 {" D[13][0]~q $end
$var wire 1 |" D[13][1]~61_combout $end
$var wire 1 }" D[13][1]~q $end
$var wire 1 ~" Add13~0_combout $end
$var wire 1 !# D[13][2]~62_combout $end
$var wire 1 "# D[13][2]~q $end
$var wire 1 ## D[13][3]~67_combout $end
$var wire 1 $# D[13][3]~q $end
$var wire 1 %# process_0~6_combout $end
$var wire 1 &# detecta~7_combout $end
$var wire 1 '# D[14][3]~53_combout $end
$var wire 1 (# D[15][0]~68_combout $end
$var wire 1 )# D[15][0]~q $end
$var wire 1 *# D[15][3]~57_combout $end
$var wire 1 +# D[15][1]~69_combout $end
$var wire 1 ,# D[15][1]~q $end
$var wire 1 -# Add15~0_combout $end
$var wire 1 .# D[15][3]~58_combout $end
$var wire 1 /# D[15][3]~q $end
$var wire 1 0# process_0~9_combout $end
$var wire 1 1# process_0~8_combout $end
$var wire 1 2# D[14][0]~64_combout $end
$var wire 1 3# D[14][0]~q $end
$var wire 1 4# Add14~0_combout $end
$var wire 1 5# D[14][3]~92_combout $end
$var wire 1 6# D[14][3]~63_combout $end
$var wire 1 7# D[14][3]~q $end
$var wire 1 8# D[14][1]~65_combout $end
$var wire 1 9# D[14][1]~q $end
$var wire 1 :# D[14][2]~66_combout $end
$var wire 1 ;# D[14][2]~q $end
$var wire 1 <# process_0~7_combout $end
$var wire 1 =# D[15][3]~6_combout $end
$var wire 1 ># C~12_combout $end
$var wire 1 ?# D[16][1]~72_combout $end
$var wire 1 @# D[16][1]~q $end
$var wire 1 A# D[16][0]~71_combout $end
$var wire 1 B# D[16][0]~q $end
$var wire 1 C# process_0~10_combout $end
$var wire 1 D# process_0~22_combout $end
$var wire 1 E# D[16][3]~54_combout $end
$var wire 1 F# D[16][3]~55_combout $end
$var wire 1 G# D[16][2]~73_combout $end
$var wire 1 H# D[16][2]~q $end
$var wire 1 I# D[16][3]~56_combout $end
$var wire 1 J# D[16][3]~q $end
$var wire 1 K# C[0]~10_combout $end
$var wire 1 L# detecta~1_combout $end
$var wire 1 M# C[0]~11_combout $end
$var wire 1 N# C~13_combout $end
$var wire 1 O# C~25_combout $end
$var wire 1 P# process_0~18_combout $end
$var wire 1 Q# C[0]~26_combout $end
$var wire 1 R# sal[2]~18_combout $end
$var wire 1 S# detecta~14_combout $end
$var wire 1 T# detecta~16_combout $end
$var wire 1 U# detecta~17_combout $end
$var wire 1 V# detecta~8_combout $end
$var wire 1 W# detecta~9_combout $end
$var wire 1 X# detecta~12_combout $end
$var wire 1 Y# detecta~18_combout $end
$var wire 1 Z# detecta~23_combout $end
$var wire 1 [# detecta~q $end
$var wire 1 \# C~30_combout $end
$var wire 1 ]# C~31_combout $end
$var wire 1 ^# C~32_combout $end
$var wire 1 _# C~28_combout $end
$var wire 1 `# C~29_combout $end
$var wire 1 a# C~42_combout $end
$var wire 1 b# C~33_combout $end
$var wire 1 c# C~34_combout $end
$var wire 1 d# C[0]~14_combout $end
$var wire 1 e# C[0]~15_combout $end
$var wire 1 f# C~37_combout $end
$var wire 1 g# C~38_combout $end
$var wire 1 h# C~35_combout $end
$var wire 1 i# C~36_combout $end
$var wire 1 j# C~39_combout $end
$var wire 1 k# Equal0~1_combout $end
$var wire 1 l# sal[0]~6_combout $end
$var wire 1 m# sal[0]~7_combout $end
$var wire 1 n# sal[0]~10_combout $end
$var wire 1 o# sal[0]~9_combout $end
$var wire 1 p# sal[0]~11_combout $end
$var wire 1 q# sal[0]~12_combout $end
$var wire 1 r# sal[0]~13_combout $end
$var wire 1 s# sal[0]~en_q $end
$var wire 1 t# D[5][3]~32_combout $end
$var wire 1 u# D[5][3]~q $end
$var wire 1 v# process_0~21_combout $end
$var wire 1 w# sal[1]~14_combout $end
$var wire 1 x# sal[1]~15_combout $end
$var wire 1 y# sal[1]~16_combout $end
$var wire 1 z# sal[1]~17_combout $end
$var wire 1 {# sal[1]~en_q $end
$var wire 1 |# sal[2]~19_combout $end
$var wire 1 }# sal[2]~20_combout $end
$var wire 1 ~# sal[2]~21_combout $end
$var wire 1 !$ sal[2]~22_combout $end
$var wire 1 "$ sal[2]~23_combout $end
$var wire 1 #$ sal[2]~en_q $end
$var wire 1 $$ sal[3]~24_combout $end
$var wire 1 %$ process_0~23_combout $end
$var wire 1 &$ sal[3]~25_combout $end
$var wire 1 '$ sal[3]~26_combout $end
$var wire 1 ($ sal[3]~27_combout $end
$var wire 1 )$ sal[3]~28_combout $end
$var wire 1 *$ sal[3]~en_q $end
$var wire 1 +$ D[4][1]~28_combout $end
$var wire 1 ,$ D[4][1]~q $end
$var wire 1 -$ sal [0] $end
$var wire 1 .$ sal [1] $end
$var wire 1 /$ sal [2] $end
$var wire 1 0$ sal [3] $end
$var wire 1 1$ C [2] $end
$var wire 1 2$ C [1] $end
$var wire 1 3$ C [0] $end
$upscope $end
$upscope $end
$enddefinitions $end
#0
$dumpvars
0!
0"
0#
0$
0%
x&
z'
z(
z)
z*
0.
0-
0,
0+
02
01
00
0/
06
05
04
03
0:
09
08
07
0>
0=
0<
0;
1B
1A
1@
1?
1F
1E
1D
1C
1J
1I
1H
1G
0N
1M
1L
1K
xO
0P
1Q
xR
1S
1T
1U
1V
0W
0X
0Y
0Z
0[
0\
0]
0^
0_
0`
0a
0b
0c
0d
0e
0f
0g
0h
0i
1j
xk
zl
zm
zn
zo
0p
0q
0r
0s
0t
0u
0v
0w
0x
0y
0z
0{
0|
0}
0~
0!!
0"!
0#!
0$!
0%!
1&!
1'!
1(!
1)!
1*!
1+!
1,!
1-!
1.!
1/!
10!
11!
02!
13!
14!
15!
06!
07!
08!
09!
0:!
0;!
0<!
0=!
0>!
0?!
0@!
0A!
0B!
0C!
0D!
0E!
0F!
0G!
0H!
0I!
1J!
0K!
0L!
0M!
0N!
0O!
0P!
0Q!
1R!
1S!
0T!
0U!
0V!
0W!
0X!
0Y!
0Z!
0[!
0\!
0]!
0^!
1_!
0`!
0a!
0b!
0c!
0d!
0e!
0f!
0g!
0h!
0i!
0j!
0k!
0l!
0m!
0n!
0o!
0p!
0q!
0r!
1s!
0t!
0u!
0v!
0w!
0x!
0y!
0z!
0{!
0|!
0}!
1~!
0!"
0""
0#"
0$"
1%"
0&"
0'"
0("
0)"
0*"
0+"
0,"
1-"
0."
0/"
00"
01"
02"
03"
04"
05"
06"
17"
08"
09"
0:"
0;"
0<"
0="
0>"
0?"
0@"
0A"
0B"
0C"
0D"
1E"
1F"
0G"
0H"
1I"
0J"
0K"
0L"
0M"
0N"
0O"
1P"
0Q"
0R"
0S"
1T"
0U"
0V"
0W"
0X"
0Y"
0Z"
0["
0\"
0]"
0^"
1_"
0`"
0a"
0b"
0c"
0d"
0e"
0f"
0g"
0h"
0i"
1j"
0k"
0l"
0m"
0n"
1o"
0p"
0q"
0r"
0s"
0t"
0u"
0v"
0w"
1x"
1y"
0z"
0{"
0|"
0}"
0~"
0!#
0"#
0##
0$#
1%#
0&#
0'#
0(#
0)#
0*#
0+#
0,#
0-#
0.#
0/#
00#
01#
02#
03#
04#
05#
06#
07#
08#
09#
0:#
0;#
0<#
0=#
1>#
0?#
0@#
0A#
0B#
0C#
1D#
0E#
0F#
0G#
0H#
0I#
0J#
0K#
1L#
0M#
1N#
1O#
0P#
1Q#
0R#
0S#
0T#
0U#
0V#
0W#
0X#
0Y#
0Z#
0[#
0\#
1]#
1^#
0_#
0`#
0a#
1b#
0c#
0d#
0e#
1f#
0g#
0h#
0i#
0j#
0k#
0l#
0m#
1n#
0o#
1p#
1q#
0r#
0s#
0t#
0u#
1v#
1w#
1x#
1y#
0z#
0{#
0|#
1}#
1~#
1!$
0"$
0#$
1$$
1%$
1&$
1'$
1($
1)$
0*$
0+$
0,$
z0$
z/$
0.$
0-$
03$
02$
01$
$end
#5000
1!
16!
17!
0O
13$
0$$
1l#
1k#
0y"
1n!
1[
1Y
1p
1.
0)$
1m#
0O#
1r#
1c#
0P"
1S"
#10000
0!
06!
07!
1O
#15000
1!
16!
17!
0O
1s#
1-$
12$
03$
0k#
1d#
0b#
1v"
0T"
0n!
1:!
1y"
0[
0Y
1l
1q
0p
1'
1-
0.
1E!
1w"
0x"
0r#
1z#
0V
1O#
1P"
1a!
1x"
0S"
#20000
0!
06!
07!
1O
#25000
1!
16!
17!
0O
1{#
1.$
0s#
0-$
13$
1g#
1R#
0y"
0:!
1[
1Y
1m
zl
1p
1(
z'
1.
1j#
1"$
1`"
0O#
0z#
0E!
1V
0c#
0P"
0a!
1S"
#30000
0!
06!
07!
1O
#35000
1!
16!
17!
0O
1#$
0{#
0.$
11$
02$
03$
1$$
1b#
1\#
0R#
1&#
1Z
0Y
0d#
0v"
1T"
1y"
0[
1n
zm
1r
0q
0p
1)
z(
1,
0-
0.
1)$
0"$
0`"
1'#
0j#
1O#
1P"
0w"
1E#
0S"
#40000
0!
06!
07!
1O
#45000
1!
16!
17!
0O
1*$
0#$
01$
13$
0$$
1k#
0g#
0\#
0&#
1n!
0Z
1Y
0y"
1[
1o
zn
0r
1p
1*
z)
0,
1.
0)$
0'#
1r#
0O#
0P"
1c#
0E#
1S"
#50000
0!
06!
07!
1O
#55000
1!
16!
17!
0O
0*$
1s#
1-$
12$
03$
0k#
1d#
0b#
1v"
0T"
0n!
1:!
1y"
0[
0Y
zo
1l
1q
0p
z*
1'
1-
0.
1E!
1w"
0x"
0r#
1z#
0V
1O#
1P"
1a!
1x"
0S"
#60000
0!
06!
07!
1O
#65000
1!
16!
17!
0O
1{#
1.$
0s#
0-$
13$
1g#
1R#
0y"
0:!
1[
1Y
1m
zl
1p
1(
z'
1.
1j#
1"$
1`"
0O#
0z#
0E!
1V
0c#
0P"
0a!
1S"
#70000
0!
06!
07!
1O
#75000
1!
16!
17!
0O
1#$
0{#
0.$
11$
02$
03$
1$$
1b#
1\#
0R#
1&#
1Z
0Y
0d#
0v"
1T"
1y"
0[
1n
zm
1r
0q
0p
1)
z(
1,
0-
0.
1)$
0"$
0`"
1'#
0j#
1O#
1P"
0w"
1E#
0S"
#80000
0!
06!
07!
1O
#85000
1!
16!
17!
0O
1*$
0#$
01$
13$
0$$
1k#
0g#
0\#
0&#
1n!
0Z
1Y
0y"
1[
1o
zn
0r
1p
1*
z)
0,
1.
0)$
0'#
1r#
0O#
0P"
1c#
0E#
1S"
#90000
0!
06!
07!
1O
#95000
1!
16!
17!
0O
0*$
1s#
1-$
12$
03$
0k#
1d#
0b#
1v"
0T"
0n!
1:!
1y"
0[
0Y
zo
1l
1q
0p
z*
1'
1-
0.
1E!
1w"
0x"
0r#
1z#
0V
1O#
1P"
1a!
1x"
0S"
#100000
0!
06!
07!
1O
#105000
1!
16!
17!
0O
1{#
1.$
0s#
0-$
13$
1g#
1R#
0y"
0:!
1[
1Y
1m
zl
1p
1(
z'
1.
1j#
1"$
1`"
0O#
0z#
0E!
1V
0c#
0P"
0a!
1S"
#110000
0!
06!
07!
1O
#115000
1!
16!
17!
0O
1#$
0{#
0.$
11$
02$
03$
1$$
1b#
1\#
0R#
1&#
1Z
0Y
0d#
0v"
1T"
1y"
0[
1n
zm
1r
0q
0p
1)
z(
1,
0-
0.
1)$
0"$
0`"
1'#
0j#
1O#
1P"
0w"
1E#
0S"
#120000
1#
0!
1Q!
06!
07!
1O
1P#
15#
11#
0_"
0%"
0R!
0j
1^
0L#
12#
1`#
0x"
0-"
1&"
0S!
0>#
1h#
1a#
0E"
0N#
1i#
0O#
1j#
#125000
1!
16!
17!
0O
13#
1*$
0#$
0%$
1<#
18#
02#
1o
zn
1*
z)
#130000
0!
06!
07!
1O
#135000
1!
16!
17!
0O
19#
03#
12#
#140000
0!
06!
07!
1O
#145000
1!
16!
17!
0O
13#
08#
14#
02#
1:#
#150000
0!
06!
07!
1O
#155000
1!
16!
17!
0O
1;#
09#
03#
0:#
16#
04#
12#
1:#
06#
#160000
0!
06!
07!
1O
#165000
1!
16!
17!
0O
13#
18#
02#
#170000
0!
06!
07!
1O
#175000
1!
16!
17!
0O
19#
03#
12#
#180000
0!
06!
07!
1O
#185000
1!
16!
17!
0O
13#
08#
14#
02#
0:#
16#
#190000
0!
06!
07!
1O
#195000
1!
16!
17!
0O
0;#
09#
17#
03#
1%$
06#
04#
0'$
0h#
1V#
1j
0i#
1W#
1>#
0j#
1X#
1N#
1Y#
1O#
1Z#
#200000
0!
06!
07!
1O
#205000
1!
16!
17!
0O
1[#
07#
01$
13$
0$$
0l#
0Q#
0&#
0F"
1[
1'$
1h#
0V#
0<#
12#
0j
1k#
0g#
0\#
0Z
1Y
0y"
0r
1p
0,
1.
0)$
0m#
1b
0X#
0'#
0O#
1i#
0W#
0>#
0^#
0P"
0E#
05#
02#
0N#
0b#
0f#
1S"
1y"
#210000
0!
06!
07!
1O
#215000
1!
16!
17!
0O
#220000
0#
0!
0Q!
06!
07!
1O
0P#
01#
1_"
1%"
1R!
1j
0^
1m#
1Q#
0[
1L#
0`#
1x"
1-"
0&"
1S!
1>#
0b
0h#
0a#
1f#
0y"
1^#
1E"
1N#
0Y#
0i#
1b#
0Z#
#225000
1!
16!
17!
0O
0[#
0*$
1-$
03$
1$$
0m#
1F"
0k#
1y"
0Y
zo
0p
z*
0.
1)$
1O#
1P"
0S"
#230000
0!
06!
07!
1O
#235000
1!
16!
17!
0O
13$
0$$
1l#
1k#
0y"
1n!
1[
1Y
1p
1.
0)$
1m#
0O#
1r#
1c#
0P"
1S"
#240000
0!
06!
07!
1O
#245000
1!
16!
17!
0O
1s#
12$
03$
0k#
1d#
0b#
1v"
0T"
0n!
1:!
1y"
0[
0Y
1l
1q
0p
1'
1-
0.
1E!
1w"
0x"
0r#
1z#
0V
1O#
1P"
1a!
1x"
0S"
#250000
0!
06!
07!
1O
#255000
1!
16!
17!
0O
1{#
1.$
0s#
0-$
13$
1g#
1R#
0y"
0:!
1[
1Y
1m
zl
1p
1(
z'
1.
1j#
1"$
1`"
0O#
0z#
0E!
1V
0c#
0P"
0a!
1S"
#260000
0!
06!
07!
1O
#265000
1!
16!
17!
0O
1#$
0{#
0.$
11$
02$
03$
1$$
1b#
1\#
0R#
1&#
1Z
0Y
0d#
0v"
1T"
1y"
0[
1n
zm
1r
0q
0p
1)
z(
1,
0-
0.
1)$
0"$
0`"
1'#
0j#
1O#
1P"
0w"
1E#
0S"
#270000
0!
06!
07!
1O
#275000
1!
16!
17!
0O
1*$
0#$
01$
13$
0$$
1k#
0g#
0\#
0&#
1n!
0Z
1Y
0y"
1[
1o
zn
0r
1p
1*
z)
0,
1.
0)$
0'#
1r#
0O#
0P"
1c#
0E#
1S"
#280000
0!
06!
07!
1O
#285000
1!
16!
17!
0O
0*$
1s#
1-$
12$
03$
0k#
1d#
0b#
1v"
0T"
0n!
1:!
1y"
0[
0Y
zo
1l
1q
0p
z*
1'
1-
0.
1E!
1w"
0x"
0r#
1z#
0V
1O#
1P"
1a!
1x"
0S"
#290000
1#
0!
1Q!
06!
07!
1O
1P#
11#
0_"
0%"
0a!
0R!
1K!
0j
1^
0L#
1`#
0w"
0-"
1&"
0S!
1F!
0>#
1h#
1a#
0x"
0^#
0E"
0N#
1i#
1b#
0F"
0O#
#295000
1!
16!
17!
0O
1G!
1{#
1.$
0s#
0-$
1L!
0J!
0F!
1m
zl
1(
z'
#300000
0!
06!
07!
1O
#305000
1!
16!
17!
0O
1M!
0G!
1F!
#310000
0!
06!
07!
1O
#315000
1!
16!
17!
0O
1G!
1N!
0L!
0F!
1H!
#320000
0!
06!
07!
1O
#325000
1!
16!
17!
0O
0M!
1I!
0G!
0N!
1O!
0H!
1F!
0O!
1H!
#330000
0!
06!
07!
1O
#335000
1!
16!
17!
0O
1G!
1L!
0F!
#340000
0!
06!
07!
1O
#345000
1!
16!
17!
0O
1M!
0G!
1F!
#350000
0!
06!
07!
1O
#355000
1!
16!
17!
0O
1G!
1N!
0L!
0F!
1O!
0H!
#360000
0!
06!
07!
1O
#365000
1!
16!
17!
0O
1P!
0M!
0I!
0G!
0x#
1l!
0O!
1V
0N!
1J!
1m!
1F"
1Z#
1O#
#370000
0!
06!
07!
1O
#375000
1!
16!
17!
0O
1[#
0P!
13$
0z#
0l#
0c#
0Q#
0F"
0m!
0E!
1[
1x#
0l!
1F!
0V
1g#
0y"
0:!
1Y
1p
1.
0m#
1b
0O#
0Z#
0K!
0F!
1c#
1V
0P"
1Y#
0f#
1S"
1Z#
0g#
1y"
#380000
0!
06!
07!
1O
#385000
1!
16!
17!
0O
#390000
0#
0!
0Q!
06!
07!
1O
0P#
01#
1_"
1%"
1R!
1j
0^
1m#
1Q#
0[
1L#
0`#
1w"
1-"
0&"
1S!
1>#
0b
0c#
0h#
0a#
1x"
1^#
1E"
1N#
0Y#
0i#
0b#
1f#
0y"
0Z#
1g#
#395000
1!
16!
17!
0O
0[#
0{#
0.$
02$
03$
1$$
0m#
1F"
0g#
0d#
1b#
0v"
1T"
1y"
0Y
zm
0q
0p
z(
0-
0.
1)$
1O#
0w"
1P"
0S"
#400000
0!
06!
07!
1O
#405000
1!
16!
17!
0O
13$
0$$
1l#
1k#
0y"
1n!
1[
1Y
1p
1.
0)$
1m#
0O#
1r#
1c#
0P"
1S"
#410000
0!
06!
07!
1O
#415000
1!
16!
17!
0O
1s#
1-$
12$
03$
0k#
1d#
0b#
1v"
0T"
0n!
1:!
1y"
0[
0Y
1l
1q
0p
1'
1-
0.
1E!
1w"
0x"
0r#
1z#
0V
1O#
1P"
1a!
1x"
0S"
#420000
0!
06!
07!
1O
#425000
1!
16!
17!
0O
1{#
1.$
0s#
0-$
13$
1g#
1R#
0y"
0:!
1[
1Y
1m
zl
1p
1(
z'
1.
1j#
1"$
1`"
0O#
0z#
0E!
1V
0c#
0P"
0a!
1S"
#430000
0!
06!
07!
1O
#435000
1!
16!
17!
0O
1#$
0{#
0.$
11$
02$
03$
1$$
1b#
1\#
0R#
1&#
1Z
0Y
0d#
0v"
1T"
1y"
0[
1n
zm
1r
0q
0p
1)
z(
1,
0-
0.
1)$
0"$
0`"
1'#
0j#
1O#
1P"
0w"
1E#
0S"
#440000
0!
06!
07!
1O
