Teclado/simulation/qsim/Proyecto_final.msim.vcd
$comment
	File created using the following command:
		vcd file Proyecto_final.msim.vcd -direction
$end
$date
	Thu Nov 13 09:47:11 2025
$end
$version
	ModelSim Version 10.1d
$end
$timescale
	1ps
$end
$scope module teclado_vlg_vec_tst $end
$var reg 1 ! clk $end
$var reg 1 " R1 $end
$var reg 1 # R2 $end
$var reg 1 $ R3 $end
$var reg 1 % R4 $end
$var wire 1 & C1 $end
$var wire 1 ' C2 $end
$var wire 1 ( C3 $end
$var wire 1 ) C4 $end
$var wire 1 * fila_1_teclado [0] $end
$var wire 1 + fila_1_teclado [1] $end
$var wire 1 , fila_1_teclado [2] $end
$var wire 1 - fila_1_teclado [3] $end
$var wire 1 . fila_2_teclado [0] $end
$var wire 1 / fila_2_teclado [1] $end
$var wire 1 0 fila_2_teclado [2] $end
$var wire 1 1 fila_2_teclado [3] $end
$var wire 1 2 fila_3_teclado [0] $end
$var wire 1 3 fila_3_teclado [1] $end
$var wire 1 4 fila_3_teclado [2] $end
$var wire 1 5 fila_3_teclado [3] $end
$var wire 1 6 fila_4_teclado [0] $end
$var wire 1 7 fila_4_teclado [1] $end
$var wire 1 8 fila_4_teclado [2] $end
$var wire 1 9 fila_4_teclado [3] $end
$var wire 1 : tablero_juego [0] $end
$var wire 1 ; tablero_juego [1] $end
$var wire 1 < tablero_juego [2] $end
$var wire 1 = tablero_juego [3] $end
$var wire 1 > tecla_color_j1 [0] $end
$var wire 1 ? tecla_color_j1 [1] $end
$var wire 1 @ tecla_color_j2 [0] $end
$var wire 1 A tecla_color_j2 [1] $end
$var wire 1 B tecla_j1_vs_j2 $end
$var wire 1 C tecla_j_vs_mq $end
$var wire 1 D tecla_reset $end
$var wire 1 E sampler $end
$scope module i1 $end
$var wire 1 F gnd $end
$var wire 1 G vcc $end
$var wire 1 H unknown $end
$var tri1 1 I devclrn $end
$var tri1 1 J devpor $end
$var tri1 1 K devoe $end
$var wire 1 L D[2][0]~q $end
$var wire 1 M mat[0][1]~14_combout $end
$var wire 1 N D[5][0]~q $end
$var wire 1 O D[7][2]~q $end
$var wire 1 P D[6][3]~4_combout $end
$var wire 1 Q mat[2][1]~26_combout $end
$var wire 1 R t_juego~17_combout $end
$var wire 1 S t_juego~23_combout $end
$var wire 1 T t_juego~24_combout $end
$var wire 1 U t_juego~25_combout $end
$var wire 1 V t_juego~31_combout $end
$var wire 1 W t_juego~32_combout $end
$var wire 1 X t_juego~33_combout $end
$var wire 1 Y t_juego~39_combout $end
$var wire 1 Z sal[0]~9_combout $end
$var wire 1 [ sal[1]~12_combout $end
$var wire 1 \ sal[1]~13_combout $end
$var wire 1 ] sal[1]~14_combout $end
$var wire 1 ^ sal[1]~15_combout $end
$var wire 1 _ sal[2]~17_combout $end
$var wire 1 ` sal[2]~18_combout $end
$var wire 1 a sal[2]~19_combout $end
$var wire 1 b sal[2]~20_combout $end
$var wire 1 c sal[2]~21_combout $end
$var wire 1 d detecta~22_combout $end
$var wire 1 e detecta~23_combout $end
$var wire 1 f detecta~24_combout $end
$var wire 1 g Add2~0_combout $end
$var wire 1 h D[2][0]~12_combout $end
$var wire 1 i Add1~0_combout $end
$var wire 1 j C~7_combout $end
$var wire 1 k C~8_combout $end
$var wire 1 l C[0]~21_combout $end
$var wire 1 m C[0]~22_combout $end
$var wire 1 n C[0]~25_combout $end
$var wire 1 o Add5~0_combout $end
$var wire 1 p D[5][0]~34_combout $end
$var wire 1 q D[7][2]~35_combout $end
$var wire 1 r Add9~0_combout $end
$var wire 1 s Add14~0_combout $end
$var wire 1 t Add16~0_combout $end
$var wire 1 u Add15~0_combout $end
$var wire 1 v t_juego~46_combout $end
$var wire 1 w t_juego~47_combout $end
$var wire 1 x C1~output_o $end
$var wire 1 y C2~output_o $end
$var wire 1 z C3~output_o $end
$var wire 1 { C4~output_o $end
$var wire 1 | fila_1_teclado[3]~output_o $end
$var wire 1 } fila_1_teclado[2]~output_o $end
$var wire 1 ~ fila_1_teclado[1]~output_o $end
$var wire 1 !! fila_1_teclado[0]~output_o $end
$var wire 1 "! fila_2_teclado[3]~output_o $end
$var wire 1 #! fila_2_teclado[2]~output_o $end
$var wire 1 $! fila_2_teclado[1]~output_o $end
$var wire 1 %! fila_2_teclado[0]~output_o $end
$var wire 1 &! fila_3_teclado[3]~output_o $end
$var wire 1 '! fila_3_teclado[2]~output_o $end
$var wire 1 (! fila_3_teclado[1]~output_o $end
$var wire 1 )! fila_3_teclado[0]~output_o $end
$var wire 1 *! fila_4_teclado[3]~output_o $end
$var wire 1 +! fila_4_teclado[2]~output_o $end
$var wire 1 ,! fila_4_teclado[1]~output_o $end
$var wire 1 -! fila_4_teclado[0]~output_o $end
$var wire 1 .! tablero_juego[3]~output_o $end
$var wire 1 /! tablero_juego[2]~output_o $end
$var wire 1 0! tablero_juego[1]~output_o $end
$var wire 1 1! tablero_juego[0]~output_o $end
$var wire 1 2! tecla_reset~output_o $end
$var wire 1 3! tecla_j1_vs_j2~output_o $end
$var wire 1 4! tecla_j_vs_mq~output_o $end
$var wire 1 5! tecla_color_j1[1]~output_o $end
$var wire 1 6! tecla_color_j1[0]~output_o $end
$var wire 1 7! tecla_color_j2[1]~output_o $end
$var wire 1 8! tecla_color_j2[0]~output_o $end
$var wire 1 9! clk~input_o $end
$var wire 1 :! clk~inputclkctrl_outclk $end
$var wire 1 ;! R4~input_o $end
$var wire 1 <! R3~input_o $end
$var wire 1 =! R2~input_o $end
$var wire 1 >! Equal3~0_combout $end
$var wire 1 ?! mat[3][2]~21_combout $end
$var wire 1 @! Equal2~0_combout $end
$var wire 1 A! D[9][3]~46_combout $end
$var wire 1 B! D[9][2]~48_combout $end
$var wire 1 C! detecta~21_combout $end
$var wire 1 D! D[15][1]~74_combout $end
$var wire 1 E! D[15][1]~q $end
$var wire 1 F! process_0~16_combout $end
$var wire 1 G! process_0~17_combout $end
$var wire 1 H! D[16][0]~83_combout $end
$var wire 1 I! D[16][0]~q $end
$var wire 1 J! D[16][1]~82_combout $end
$var wire 1 K! D[16][1]~q $end
$var wire 1 L! process_0~27_combout $end
$var wire 1 M! D[15][3]~7_combout $end
$var wire 1 N! D[16][3]~68_combout $end
$var wire 1 O! D[16][2]~81_combout $end
$var wire 1 P! D[16][2]~q $end
$var wire 1 Q! D[16][3]~69_combout $end
$var wire 1 R! D[16][3]~q $end
$var wire 1 S! mat[3][3]~29_combout $end
$var wire 1 T! R1~input_o $end
$var wire 1 U! detecta~19_combout $end
$var wire 1 V! D[13][0]~62_combout $end
$var wire 1 W! D[13][0]~q $end
$var wire 1 X! D[13][1]~61_combout $end
$var wire 1 Y! D[13][1]~q $end
$var wire 1 Z! Add13~0_combout $end
$var wire 1 [! D[13][2]~60_combout $end
$var wire 1 \! D[13][2]~q $end
$var wire 1 ]! process_0~13_combout $end
$var wire 1 ^! process_0~14_combout $end
$var wire 1 _! D[13][3]~58_combout $end
$var wire 1 `! D[13][3]~59_combout $end
$var wire 1 a! D[13][3]~q $end
$var wire 1 b! detecta~20_combout $end
$var wire 1 c! t_reset~0_combout $end
$var wire 1 d! t_reset~q $end
$var wire 1 e! D[9][2]~q $end
$var wire 1 f! D[9][3]~47_combout $end
$var wire 1 g! D[9][3]~q $end
$var wire 1 h! D[9][0]~50_combout $end
$var wire 1 i! D[9][0]~q $end
$var wire 1 j! D[9][1]~49_combout $end
$var wire 1 k! D[9][1]~q $end
$var wire 1 l! process_0~10_combout $end
$var wire 1 m! process_0~11_combout $end
$var wire 1 n! D[10][2]~43_combout $end
$var wire 1 o! D[10][2]~q $end
$var wire 1 p! D[10][1]~44_combout $end
$var wire 1 q! D[10][1]~q $end
$var wire 1 r! process_0~8_combout $end
$var wire 1 s! process_0~9_combout $end
$var wire 1 t! D[10][3]~41_combout $end
$var wire 1 u! D[10][0]~45_combout $end
$var wire 1 v! D[10][0]~q $end
$var wire 1 w! Add10~0_combout $end
$var wire 1 x! D[10][3]~42_combout $end
$var wire 1 y! D[10][3]~q $end
$var wire 1 z! detecta~34_combout $end
$var wire 1 {! detecta~36_combout $end
$var wire 1 |! detecta~35_combout $end
$var wire 1 }! D[11][3]~5_combout $end
$var wire 1 ~! D[11][0]~54_combout $end
$var wire 1 !" D[11][0]~q $end
$var wire 1 "" D[11][3]~51_combout $end
$var wire 1 #" D[11][1]~53_combout $end
$var wire 1 $" D[11][1]~q $end
$var wire 1 %" Add11~0_combout $end
$var wire 1 &" D[11][3]~57_combout $end
$var wire 1 '" D[11][3]~q $end
$var wire 1 (" D[12][2]~78_combout $end
$var wire 1 )" D[12][2]~q $end
$var wire 1 *" D[12][1]~79_combout $end
$var wire 1 +" D[12][1]~q $end
$var wire 1 ," process_0~26_combout $end
$var wire 1 -" D[12][3]~55_combout $end
$var wire 1 ." D[12][0]~80_combout $end
$var wire 1 /" D[12][0]~q $end
$var wire 1 0" Add12~0_combout $end
$var wire 1 1" D[12][3]~56_combout $end
$var wire 1 2" D[12][3]~q $end
$var wire 1 3" D[11][2]~52_combout $end
$var wire 1 4" D[11][2]~q $end
$var wire 1 5" process_0~12_combout $end
$var wire 1 6" mat[2][3]~22_combout $end
$var wire 1 7" t_j1_vs_j2~1_combout $end
$var wire 1 8" detecta~25_combout $end
$var wire 1 9" D[5][1]~33_combout $end
$var wire 1 :" D[5][1]~q $end
$var wire 1 ;" D[5][2]~32_combout $end
$var wire 1 <" D[5][2]~q $end
$var wire 1 =" process_0~6_combout $end
$var wire 1 >" process_0~7_combout $end
$var wire 1 ?" D[5][3]~30_combout $end
$var wire 1 @" D[5][3]~31_combout $end
$var wire 1 A" D[5][3]~q $end
$var wire 1 B" t_juego~10_combout $end
$var wire 1 C" process_0~5_combout $end
$var wire 1 D" D[6][3]~25_combout $end
$var wire 1 E" D[6][3]~26_combout $end
$var wire 1 F" D[6][3]~q $end
$var wire 1 G" D[6][1]~28_combout $end
$var wire 1 H" D[6][1]~q $end
$var wire 1 I" D[6][0]~29_combout $end
$var wire 1 J" D[6][0]~q $end
$var wire 1 K" Add6~0_combout $end
$var wire 1 L" D[6][2]~27_combout $end
$var wire 1 M" D[6][2]~q $end
$var wire 1 N" process_0~4_combout $end
$var wire 1 O" detecta~33_combout $end
$var wire 1 P" t_juego~9_combout $end
$var wire 1 Q" D[7][3]~87_combout $end
$var wire 1 R" D[7][1]~36_combout $end
$var wire 1 S" D[7][1]~q $end
$var wire 1 T" C[0]~5_combout $end
$var wire 1 U" process_0~22_combout $end
$var wire 1 V" detecta~28_combout $end
$var wire 1 W" detecta~29_combout $end
$var wire 1 X" detecta~17_combout $end
$var wire 1 Y" mat[3][0]~32_combout $end
$var wire 1 Z" detecta~26_combout $end
$var wire 1 [" detecta~27_combout $end
$var wire 1 \" detecta~30_combout $end
$var wire 1 ]" detecta~31_combout $end
$var wire 1 ^" detecta~32_combout $end
$var wire 1 _" detecta~q $end
$var wire 1 `" mat[1][1]~17_combout $end
$var wire 1 a" D[14][3]~6_combout $end
$var wire 1 b" D[14][3]~63_combout $end
$var wire 1 c" D[14][3]~64_combout $end
$var wire 1 d" D[14][3]~q $end
$var wire 1 e" D[14][2]~65_combout $end
$var wire 1 f" D[14][2]~q $end
$var wire 1 g" D[14][0]~67_combout $end
$var wire 1 h" D[14][0]~q $end
$var wire 1 i" process_0~15_combout $end
$var wire 1 j" D[15][3]~70_combout $end
$var wire 1 k" D[15][2]~72_combout $end
$var wire 1 l" D[15][2]~q $end
$var wire 1 m" D[15][3]~71_combout $end
$var wire 1 n" D[15][3]~q $end
$var wire 1 o" C[0]~17_combout $end
$var wire 1 p" C[0]~18_combout $end
$var wire 1 q" C~19_combout $end
$var wire 1 r" C~20_combout $end
$var wire 1 s" C~35_combout $end
$var wire 1 t" C~36_combout $end
$var wire 1 u" process_0~18_combout $end
$var wire 1 v" C[0]~6_combout $end
$var wire 1 w" Equal1~0_combout $end
$var wire 1 x" D[7][3]~3_combout $end
$var wire 1 y" D[7][0]~37_combout $end
$var wire 1 z" D[7][0]~q $end
$var wire 1 {" Add7~0_combout $end
$var wire 1 |" D[7][3]~40_combout $end
$var wire 1 }" D[7][3]~q $end
$var wire 1 ~" C[0]~32_combout $end
$var wire 1 !# C[0]~33_combout $end
$var wire 1 "# C[0]~31_combout $end
$var wire 1 ## C[0]~34_combout $end
$var wire 1 $# C~42_combout $end
$var wire 1 %# detecta~16_combout $end
$var wire 1 &# D[1][3]~13_combout $end
$var wire 1 '# D[1][2]~17_combout $end
$var wire 1 (# D[1][2]~q $end
$var wire 1 )# D[1][3]~14_combout $end
$var wire 1 *# D[1][3]~q $end
$var wire 1 +# Equal0~1_combout $end
$var wire 1 ,# C[0]~24_combout $end
$var wire 1 -# process_0~24_combout $end
$var wire 1 .# C[0]~28_combout $end
$var wire 1 /# D[4][2]~75_combout $end
$var wire 1 0# D[4][2]~q $end
$var wire 1 1# process_0~23_combout $end
$var wire 1 2# D[1][1]~15_combout $end
$var wire 1 3# D[1][1]~q $end
$var wire 1 4# process_0~1_combout $end
$var wire 1 5# process_0~2_combout $end
$var wire 1 6# D[3][3]~2_combout $end
$var wire 1 7# D[4][3]~22_combout $end
$var wire 1 8# D[4][0]~77_combout $end
$var wire 1 9# D[4][0]~q $end
$var wire 1 :# D[4][1]~76_combout $end
$var wire 1 ;# D[4][1]~q $end
$var wire 1 <# Add4~0_combout $end
$var wire 1 =# D[4][3]~23_combout $end
$var wire 1 ># D[4][3]~q $end
$var wire 1 ?# D[1][0]~16_combout $end
$var wire 1 @# D[1][0]~q $end
$var wire 1 A# process_0~19_combout $end
$var wire 1 B# C[0]~26_combout $end
$var wire 1 C# D[2][3]~8_combout $end
$var wire 1 D# D[2][2]~10_combout $end
$var wire 1 E# D[2][2]~q $end
$var wire 1 F# D[2][3]~9_combout $end
$var wire 1 G# D[2][3]~q $end
$var wire 1 H# D[2][1]~11_combout $end
$var wire 1 I# D[2][1]~q $end
$var wire 1 J# LessThan2~0_combout $end
$var wire 1 K# process_0~21_combout $end
$var wire 1 L# D[3][3]~18_combout $end
$var wire 1 M# D[3][0]~21_combout $end
$var wire 1 N# D[3][0]~q $end
$var wire 1 O# D[3][1]~20_combout $end
$var wire 1 P# D[3][1]~q $end
$var wire 1 Q# Add3~0_combout $end
$var wire 1 R# D[3][3]~24_combout $end
$var wire 1 S# D[3][3]~q $end
$var wire 1 T# D[3][2]~19_combout $end
$var wire 1 U# D[3][2]~q $end
$var wire 1 V# process_0~3_combout $end
$var wire 1 W# C[0]~27_combout $end
$var wire 1 X# C[0]~29_combout $end
$var wire 1 Y# C~10_combout $end
$var wire 1 Z# C[0]~23_combout $end
$var wire 1 [# C[0]~30_combout $end
$var wire 1 \# C~37_combout $end
$var wire 1 ]# C~38_combout $end
$var wire 1 ^# C~39_combout $end
$var wire 1 _# C~40_combout $end
$var wire 1 `# C~14_combout $end
$var wire 1 a# process_0~0_combout $end
$var wire 1 b# C~9_combout $end
$var wire 1 c# C~11_combout $end
$var wire 1 d# process_0~25_combout $end
$var wire 1 e# C~13_combout $end
$var wire 1 f# C~12_combout $end
$var wire 1 g# C~41_combout $end
$var wire 1 h# C~15_combout $end
$var wire 1 i# C[1]~0_combout $end
$var wire 1 j# C~16_combout $end
$var wire 1 k# Equal0~0_combout $end
$var wire 1 l# sal[3]~5_combout $end
$var wire 1 m# sal[3]~6_combout $end
$var wire 1 n# sal[0]~7_combout $end
$var wire 1 o# sal[0]~8_combout $end
$var wire 1 p# sal[0]~10_combout $end
$var wire 1 q# sal[0]~11_combout $end
$var wire 1 r# sal[0]~en_q $end
$var wire 1 s# sal[1]~16_combout $end
$var wire 1 t# sal[1]~en_q $end
$var wire 1 u# sal[2]~22_combout $end
$var wire 1 v# sal[2]~en_q $end
$var wire 1 w# t_j_vs_mq~2_combout $end
$var wire 1 x# D[14][1]~66_combout $end
$var wire 1 y# D[14][1]~q $end
$var wire 1 z# sal[3]~24_combout $end
$var wire 1 {# D[15][0]~73_combout $end
$var wire 1 |# D[15][0]~q $end
$var wire 1 }# process_0~20_combout $end
$var wire 1 ~# sal[3]~23_combout $end
$var wire 1 !$ sal[3]~25_combout $end
$var wire 1 "$ sal[3]~26_combout $end
$var wire 1 #$ sal[3]~27_combout $end
$var wire 1 $$ sal[3]~en_q $end
$var wire 1 %$ t_color_j2[1]~2_combout $end
$var wire 1 &$ mat[0][3]~12_combout $end
$var wire 1 '$ mat[0][3]~q $end
$var wire 1 ($ mat[0][2]~34_combout $end
$var wire 1 )$ mat[0][2]~q $end
$var wire 1 *$ mat[0][1]~15_combout $end
$var wire 1 +$ mat[0][1]~q $end
$var wire 1 ,$ mat[0][0]~35_combout $end
$var wire 1 -$ mat[0][0]~q $end
$var wire 1 .$ D[8][2]~84_combout $end
$var wire 1 /$ D[8][2]~q $end
$var wire 1 0$ D[8][1]~85_combout $end
$var wire 1 1$ D[8][1]~q $end
$var wire 1 2$ process_0~28_combout $end
$var wire 1 3$ D[8][3]~38_combout $end
$var wire 1 4$ D[8][0]~86_combout $end
$var wire 1 5$ D[8][0]~q $end
$var wire 1 6$ Add8~0_combout $end
$var wire 1 7$ D[8][3]~39_combout $end
$var wire 1 8$ D[8][3]~q $end
$var wire 1 9$ t_color_j2[1]~3_combout $end
$var wire 1 :$ mat[1][3]~18_combout $end
$var wire 1 ;$ mat[1][3]~q $end
$var wire 1 <$ mat[1][2]~36_combout $end
$var wire 1 =$ mat[1][2]~q $end
$var wire 1 >$ mat[1][1]~19_combout $end
$var wire 1 ?$ mat[1][1]~q $end
$var wire 1 @$ mat[1][0]~20_combout $end
$var wire 1 A$ mat[1][0]~q $end
$var wire 1 B$ mat[2][3]~23_combout $end
$var wire 1 C$ mat[2][3]~q $end
$var wire 1 D$ mat[2][2]~37_combout $end
$var wire 1 E$ mat[2][2]~q $end
$var wire 1 F$ mat[2][1]~38_combout $end
$var wire 1 G$ mat[2][1]~q $end
$var wire 1 H$ mat[2][0]~27_combout $end
$var wire 1 I$ mat[2][0]~28_combout $end
$var wire 1 J$ mat[2][0]~q $end
$var wire 1 K$ mat[3][3]~30_combout $end
$var wire 1 L$ mat[3][3]~q $end
$var wire 1 M$ mat[3][2]~39_combout $end
$var wire 1 N$ mat[3][2]~q $end
$var wire 1 O$ mat[3][1]~31_combout $end
$var wire 1 P$ mat[3][1]~q $end
$var wire 1 Q$ mat[3][0]~33_combout $end
$var wire 1 R$ mat[3][0]~q $end
$var wire 1 S$ detecta~18_combout $end
$var wire 1 T$ t_juego~14_combout $end
$var wire 1 U$ t_juego~15_combout $end
$var wire 1 V$ mat[0][0]~16_combout $end
$var wire 1 W$ t_juego~16_combout $end
$var wire 1 X$ t_juego~18_combout $end
$var wire 1 Y$ t_j1_vs_j2~0_combout $end
$var wire 1 Z$ mat[2][1]~25_combout $end
$var wire 1 [$ t_juego~11_combout $end
$var wire 1 \$ t_juego~12_combout $end
$var wire 1 ]$ t_juego~13_combout $end
$var wire 1 ^$ t_juego~19_combout $end
$var wire 1 _$ t_juego~20_combout $end
$var wire 1 `$ t_juego~48_combout $end
$var wire 1 a$ mat[2][2]~24_combout $end
$var wire 1 b$ t_juego~21_combout $end
$var wire 1 c$ t_juego~22_combout $end
$var wire 1 d$ t_juego~28_combout $end
$var wire 1 e$ t_juego~26_combout $end
$var wire 1 f$ t_juego~27_combout $end
$var wire 1 g$ t_juego~29_combout $end
$var wire 1 h$ t_juego~30_combout $end
$var wire 1 i$ t_juego~36_combout $end
$var wire 1 j$ mat[0][2]~13_combout $end
$var wire 1 k$ t_juego~34_combout $end
$var wire 1 l$ t_juego~35_combout $end
$var wire 1 m$ t_juego~37_combout $end
$var wire 1 n$ t_juego[1]~0_combout $end
$var wire 1 o$ t_juego~38_combout $end
$var wire 1 p$ t_juego~40_combout $end
$var wire 1 q$ t_juego~43_combout $end
$var wire 1 r$ t_juego~41_combout $end
$var wire 1 s$ t_juego~42_combout $end
$var wire 1 t$ t_juego~44_combout $end
$var wire 1 u$ t_juego~45_combout $end
$var wire 1 v$ t_j1_vs_j2~2_combout $end
$var wire 1 w$ t_j1_vs_j2~q $end
$var wire 1 x$ t_j_vs_mq~3_combout $end
$var wire 1 y$ t_j_vs_mq~4_combout $end
$var wire 1 z$ t_j_vs_mq~q $end
$var wire 1 {$ t_color_j1~2_combout $end
$var wire 1 |$ t_color_j1[0]~3_combout $end
$var wire 1 }$ t_color_j1[0]~4_combout $end
$var wire 1 ~$ t_color_j1[0]~6_combout $end
$var wire 1 !% t_color_j1~5_combout $end
$var wire 1 "% LessThan2~1_combout $end
$var wire 1 #% t_color_j2[1]~4_combout $end
$var wire 1 $% t_color_j2[1]~5_combout $end
$var wire 1 %% t_color_j2[1]~6_combout $end
$var wire 1 &% t_color_j2[1]~7_combout $end
$var wire 1 '% t_color_j1 [0] $end
$var wire 1 (% t_color_j1 [1] $end
$var wire 1 )% sal [0] $end
$var wire 1 *% sal [1] $end
$var wire 1 +% sal [2] $end
$var wire 1 ,% sal [3] $end
$var wire 1 -% t_juego [0] $end
$var wire 1 .% t_juego [1] $end
$var wire 1 /% t_juego [2] $end
$var wire 1 0% t_juego [3] $end
$var wire 1 1% t_color_j2 [0] $end
$var wire 1 2% t_color_j2 [1] $end
$var wire 1 3% C [2] $end
$var wire 1 4% C [1] $end
$var wire 1 5% C [0] $end
$upscope $end
$upscope $end
$enddefinitions $end
#0
$dumpvars
0!
0"
0#
0$
0%
z&
z'
z(
z)
0-
0,
0+
0*
01
00
0/
0.
05
04
03
02
09
08
07
06
1=
0<
0;
1:
0?
0>
0A
0@
0B
0C
0D
xE
0F
1G
xH
1I
1J
1K
0L
0M
0N
0O
0P
0Q
1R
0S
0T
0U
0V
1W
0X
1Y
1Z
1[
0\
1]
1^
0_
0`
1a
1b
1c
0d
0e
0f
0g
0h
0i
0j
0k
0l
0m
0n
0o
0p
0q
0r
0s
0t
0u
0v
0w
zx
zy
zz
z{
0|
0}
0~
0!!
0"!
0#!
0$!
0%!
0&!
0'!
0(!
0)!
0*!
0+!
0,!
0-!
1.!
0/!
00!
11!
02!
03!
04!
05!
06!
07!
08!
09!
0:!
0;!
0<!
0=!
0>!
1?!
0@!
0A!
0B!
0C!
0D!
0E!
0F!
0G!
0H!
0I!
0J!
0K!
0L!
0M!
0N!
0O!
0P!
0Q!
0R!
0S!
0T!
1U!
0V!
0W!
0X!
0Y!
0Z!
0[!
0\!
1]!
0^!
0_!
0`!
0a!
1b!
0c!
0d!
0e!
0f!
0g!
0h!
0i!
0j!
0k!
1l!
0m!
0n!
0o!
0p!
0q!
1r!
0s!
0t!
0u!
0v!
0w!
0x!
0y!
0z!
0{!
0|!
0}!
0~!
0!"
0""
0#"
0$"
0%"
0&"
0'"
0("
0)"
0*"
0+"
1,"
0-"
0."
0/"
00"
01"
02"
03"
04"
15"
06"
07"
08"
09"
0:"
0;"
0<"
1="
0>"
0?"
0@"
0A"
0B"
0C"
0D"
0E"
0F"
0G"
0H"
0I"
0J"
0K"
0L"
0M"
1N"
1O"
0P"
0Q"
0R"
0S"
1T"
0U"
0V"
0W"
0X"
0Y"
0Z"
0["
0\"
0]"
1^"
0_"
0`"
0a"
0b"
0c"
0d"
0e"
0f"
0g"
0h"
0i"
0j"
0k"
0l"
0m"
0n"
0o"
0p"
0q"
0r"
0s"
0t"
0u"
1v"
0w"
0x"
0y"
0z"
0{"
0|"
0}"
0~"
1!#
1"#
0##
0$#
0%#
0&#
0'#
0(#
0)#
0*#
0+#
1,#
1-#
1.#
0/#
00#
11#
02#
03#
04#
05#
06#
07#
08#
09#
0:#
0;#
0<#
0=#
0>#
0?#
0@#
1A#
1B#
0C#
0D#
0E#
0F#
0G#
0H#
0I#
1J#
0K#
0L#
0M#
0N#
0O#
0P#
0Q#
0R#
0S#
0T#
0U#
1V#
1W#
1X#
0Y#
0Z#
1[#
0\#
1]#
1^#
0_#
0`#
0a#
1b#
1c#
0d#
0e#
0f#
0g#
1h#
0i#
0j#
0k#
0l#
1m#
1n#
1o#
1p#
0q#
0r#
0s#
0t#
0u#
0v#
1w#
0x#
0y#
0z#
0{#
0|#
1}#
1~#
1!$
1"$
0#$
0$$
0%$
0&$
0'$
0($
0)$
0*$
0+$
0,$
0-$
0.$
0/$
00$
01$
02$
03$
04$
05$
06$
07$
08$
09$
0:$
0;$
0<$
0=$
0>$
0?$
0@$
0A$
0B$
0C$
0D$
0E$
0F$
0G$
0H$
0I$
0J$
0K$
0L$
0M$
0N$
0O$
0P$
0Q$
0R$
0S$
1T$
1U$
0V$
0W$
0X$
1Y$
0Z$
1[$
1\$
1]$
0^$
1_$
0`$
0a$
0b$
0c$
0d$
0e$
0f$
0g$
0h$
1i$
0j$
1k$
0l$
0m$
0n$
0o$
1p$
1q$
0r$
0s$
1t$
0u$
0v$
0w$
0x$
0y$
0z$
0{$
1|$
0}$
1~$
0!%
0"%
0#%
0$%
1%%
1&%
0(%
0'%
z,%
z+%
0*%
0)%
00%
0/%
0.%
0-%
02%
01%
05%
04%
03%
$end
#5000
1!
19!
1:!
0E
1_"
0&%
1!%
0~$
0_$
0]$
1#$
0m#
1##
1`"
0?!
0Y
1\#
0p$
1_#
#10000
0!
09!
0:!
1E
#15000
1!
19!
1:!
0E
15%
0Y$
0w#
1l#
1k#
1i#
0\#
1+#
1%#
0`"
1?!
0t$
1_$
0#$
1m#
1#%
1l$
0i$
1X$
0U$
16#
0_#
0,#
1q#
#20000
0!
09!
0:!
1E
#25000
1!
19!
1:!
0E
14%
05%
1r#
1)%
0k#
0c#
1`#
0B#
0%#
1w"
1`"
1n
1\#
0+#
1x
1&
0#%
1r$
0l$
1i$
0X$
1U$
06#
0h#
0q#
1s#
0"#
1x"
1P
1_#
1,#
1s$
1u$
1t$
0u$
#30000
0!
09!
0:!
1E
#35000
1!
19!
1:!
0E
15%
1t#
1*%
0r#
0)%
1Y$
0i#
0\#
1+#
0w"
1s"
1@!
0?!
1y
zx
1'
z&
1]$
0_#
0,#
0r$
0s#
1"#
0x"
1Q
0P
1t"
1^$
1u#
17"
1}!
0^$
0s$
#40000
0!
09!
0:!
1E
#45000
1!
19!
1:!
0E
04%
05%
13%
1v#
0t#
0*%
1w#
1c#
0`#
1B#
1$#
0s"
1C!
0@!
1>!
0n
1k
1\#
0+#
1z
zy
1(
z'
1#$
1h#
1_#
0t"
0_$
0]$
0u#
07"
0}!
0Q
0\#
1a"
1,#
1M!
#50000
0!
09!
0:!
1E
#55000
1!
19!
1:!
0E
15%
03%
1$$
0v#
0Y$
0w#
1k#
1i#
1+#
1%#
0$#
0`"
0C!
1?!
0>!
0k
1{
zz
1)
z(
0t$
1_$
0#$
1#%
1l$
0i$
1X$
0U$
16#
0,#
1q#
0_#
0a"
0M!
#60000
0!
09!
0:!
1E
#65000
1!
19!
1:!
0E
14%
05%
0$$
1r#
1)%
0k#
0c#
1`#
0B#
0%#
1w"
1`"
1n
1\#
0+#
z{
1x
z)
1&
0#%
1r$
0l$
1i$
0X$
1U$
06#
0h#
0q#
1s#
0"#
1x"
1P
1_#
1,#
1s$
1u$
1t$
0u$
#70000
0!
09!
0:!
1E
#75000
1!
19!
1:!
0E
15%
1t#
1*%
0r#
0)%
1Y$
0i#
0\#
1+#
0w"
1s"
1@!
0?!
1y
zx
1'
z&
1]$
0_#
0,#
0r$
0s#
1"#
0x"
1Q
0P
1t"
1^$
1u#
17"
1}!
0^$
0s$
#80000
0!
09!
0:!
1E
#85000
1!
19!
1:!
0E
04%
05%
13%
1v#
0t#
0*%
1w#
1c#
0`#
1B#
1$#
0s"
1C!
0@!
1>!
0n
1k
1\#
0+#
1z
zy
1(
z'
1#$
1h#
1_#
0t"
0_$
0]$
0u#
07"
0}!
0Q
0\#
1a"
1,#
1M!
#90000
1"
0!
1T!
09!
0:!
1E
0!%
0|$
1{$
1d$
0A#
14#
1u"
1>"
0l!
1^!
0U!
0B#
15#
0i$
0O"
1m!
1o"
0a"
1_!
0b!
0X#
0c#
0]#
1q"
0M!
1V!
0^#
1r"
0_#
1t"
#95000
1!
19!
1:!
0E
1W!
1$$
0v#
0]!
1X!
0V!
1{
zz
1)
z(
#100000
0!
09!
0:!
1E
#105000
1!
19!
1:!
0E
1Y!
0W!
1V!
#110000
0!
09!
0:!
1E
#115000
1!
19!
1:!
0E
1W!
1Z!
0X!
0V!
1[!
#120000
0!
09!
0:!
1E
#125000
1!
19!
1:!
0E
1\!
0Y!
0W!
1`!
0[!
0Z!
1V!
0`!
1[!
#130000
0!
09!
0:!
1E
#135000
1!
19!
1:!
0E
1W!
1X!
0V!
#140000
0!
09!
0:!
1E
#145000
1!
19!
1:!
0E
1Y!
0W!
1V!
#150000
0!
09!
0:!
1E
#155000
1!
19!
1:!
0E
1W!
1Z!
0X!
0V!
1`!
0[!
#160000
0!
09!
0:!
1E
#165000
1!
19!
1:!
0E
1a!
0\!
0Y!
0W!
0"$
1]#
0q"
1Y"
0`!
1]!
0Z!
1^#
0r"
1}$
1Q$
1Z"
1_#
0t"
1~$
1["
1\"
1]"
0^"
#170000
0!
09!
0:!
1E
#175000
1!
19!
1:!
0E
15%
03%
0_"
0a!
1(%
1R$
0Y$
0w#
0l#
1k#
1i#
1+#
0$#
0`"
0]"
0C!
1?!
0>!
0\"
0k
0~$
0{$
1]$
0#$
0##
0v"
1|!
1"$
0]#
1q"
0Y"
1V!
15!
1-!
1?
16
1s$
0m#
1#%
1l$
0d$
1W$
0U$
0,#
0_#
0_!
0h#
0^#
1r"
0}$
0Z"
0s$
1X$
0[#
0V!
0i#
0["
#180000
0!
09!
0:!
1E
#185000
1!
19!
1:!
0E
#190000
0!
09!
0:!
1E
#195000
1!
19!
1:!
0E
#200000
0!
09!
0:!
1E
#205000
1!
19!
1:!
0E
